…
## 6 - Exporting data

Until I go through upstream steps (extracting “real” data from original
files) and consider the downstream steps more concretely, it is hard to
be sure about how / in which format, etc, to export the data. Still,
here is a list of items that need to be exported one way or another

``` r
abs_corrected
```

    # A tibble: 72 × 6
       plate_id well_id row   column well_content abs_corrected
       <chr>    <chr>   <chr> <chr>  <chr>                <dbl>
     1 plate_id A10     A     10     wem                 0.254 
     2 plate_id B10     B     10     wem                -0.336 
     3 plate_id C10     C     10     wem                -0.0963
     4 plate_id D10     D     10     wem                -0.186 
     5 plate_id E10     E     10     wem                -0.0363
     6 plate_id F10     F     10     wem                -0.266 
     7 plate_id G10     G     10     wem                 0.104 
     8 plate_id H10     H     10     wem                -0.0863
     9 plate_id A11     A     11     wmr                -0.376 
    10 plate_id B11     B     11     wmr                -0.406 
    # ℹ 62 more rows
…
