…
</details>

    [1] 24

<details class="code-fold">
<summary>Code</summary>

``` r
yield_full |> filter(rdt_brut_ha != grain_yield_t_per_ha) |> select(biol_unit_nb, rdt_brut_ha, grain_yield_t_per_ha)
```

</details>

    # A tibble: 24 × 3
    # Rowwise: 
       biol_unit_nb rdt_brut_ha grain_yield_t_per_ha
              <dbl>       <dbl>                <dbl>
     1           81        1.01                1.01 
     2           84        1.07                1.07 
     3           85        0.95                0.947
     4           86        0.97                0.967
     5           87        1.11                1.11 
     6           88        1.01                1.01 
     7           81        0.57                0.573
     8           84        0.35                0.353
     9           86        0.31                0.307
    10           87        0.56                0.56 
    # ℹ 14 more rows
…
</details>

    [1] 32

<details class="code-fold">
<summary>Code</summary>

``` r
yield_full |> filter(rdt_15_percent_ha != grain_yield_15p_t_per_ha) |> select(biol_unit_nb, rdt_15_percent_ha, grain_yield_15p_t_per_ha)
```

</details>

    # A tibble: 32 × 3
    # Rowwise: 
       biol_unit_nb rdt_15_percent_ha grain_yield_15p_t_per_ha
              <dbl>             <dbl>                    <dbl>
     1           81              1                       1.00 
     2           82              1.07                    1.07 
     3           83              0.93                    0.927
     4           84              1.05                    1.05 
     5           85              0.93                    0.927
     6           86              0.95                    0.950
     7           87              1.11                    1.11 
     8           88              0.99                    0.992
     9           81              0.55                    0.554
    10           84              0.34                    0.343
    # ℹ 22 more rows
…
