…
# from .csv format
Nmin_t3_abs <- import_abs_csv(csv_file)
Nmin_TDN <- import_abs_csv(csv_file_TDN)


# look at structure of data frames
Nmin_t1t2_abs$abs_data_df 
```

</details>

    # A tibble: 96 × 101
       row   column NH4_1F1 NH4_1F2_1 NH4_1F2_2 NH4_1F3 NH4_1F4 NH4_1F5 NH4_1G1
       <chr> <chr>    <dbl>     <dbl>     <dbl>   <dbl>   <dbl>   <dbl>   <dbl>
     1 A     1        0.039     0.039     0.039   0.038   0.039   0.039   0.039
     2 A     2        0.046     0.042     0.042   0.042   0.046   0.062   0.04 
     3 A     3        0.049     0.041     0.041   0.042   0.041   0.042   0.039
     4 A     4        0.042     0.041     0.041   0.042   0.042   0.04    0.039
     5 A     5        0.042     0.042     0.042   0.043   0.042   0.041   0.04 
     6 A     6        0.041     0.041     0.041   0.043   0.042   0.043   0.041
     7 A     7        0.042     0.041     0.041   0.044   0.041   0.043   0.04 
     8 A     8        0.039     0.038     0.038   0.039   0.039   0.039   0.039
     9 A     9        0.043     0.042     0.042   0.042   0.043   0.041   0.039
    10 A     10       0.042     0.041     0.041   0.042   0.042   0.046   0.04 
    # ℹ 86 more rows
    # ℹ 92 more variables: NH4_1G2 <dbl>, NH4_1G3 <dbl>, NH4_1G4 <dbl>,
    #   NH4_1G5 <dbl>, NH4_2F1_1 <dbl>, NH4_2F1_2 <dbl>, NH4_2F2_1 <dbl>,
    #   NH4_2F2_2 <dbl>, NH4_2F3_1 <dbl>, NH4_2F3_2 <dbl>, NH4_2F4_1 <dbl>,
    #   NH4_2F4_2 <dbl>, NH4_2F5_1 <dbl>, NH4_2F5_2 <dbl>, NH4_2F6_1 <dbl>,
    #   NH4_2F6_2 <dbl>, NH4_2P1 <dbl>, NH4_2P2 <dbl>, NH4_2P3 <dbl>,
    #   NH4_2P4 <dbl>, NH4_2P5 <dbl>, NH4_2P6_1 <dbl>, NH4_2P6_2 <dbl>, …

<details class="code-fold">
<summary>Code</summary>

``` r
Nmin_t3_abs$abs_data_df
```

</details>

    # A tibble: 96 × 38
       row   column NO3_R1R2_1 NO3_R2R3_1 NO3_R4R5_1 NO3_R5R6_1 NO3_R6R7_1
       <chr> <chr>       <dbl>      <dbl>      <dbl>      <dbl>      <dbl>
     1 A     1           0.094      0.134      0.09       0.088      0.088
     2 A     2           0.085      0.089      0.08       0.08       0.08 
     3 A     3           0.277      0.151      0.084      0.081      0.081
     4 A     4           0.152      0.147      0.146      0.209      0.17 
     5 A     5           0.186      0.182      0.134      0.148      0.173
     6 A     6           0.149      0.304      0.159      0.143      0.228
     7 A     7           0.187      0.205      0.163      0.201      0.353
     8 A     8           0.135      0.22       0.205      0.166      0.192
     9 A     9           0.136      0.227      0.162      0.356      0.154
    10 A     10          0.176      0.086      0.158      0.087      0.088
    # ℹ 86 more rows
    # ℹ 31 more variables: NO3_R7R8_1 <dbl>, NO2_R1R2_1 <dbl>, NO2_R2R3_1 <dbl>,
    #   NO2_R4R5_1 <dbl>, NO2_R5R6_1 <dbl>, NO2_R6R7_1 <dbl>, NO2_R7R8_1 <dbl>,
    #   NH4_R1R2_1 <dbl>, NH4_R2R3_1 <dbl>, NH4_R4R5_1 <dbl>, NH4_R5R6_1 <dbl>,
    #   NH4_R6R7_1 <dbl>, NH4_R7R8_1 <dbl>, NO3_R1R2_2 <dbl>, NO3_R2R3_2 <dbl>,
    #   NO3_R4R5_2 <dbl>, NO3_R5R6_2 <dbl>, NO3_R6R7_2 <dbl>, NO3_R7R8_2 <dbl>,
    #   NO2_R1R2_2 <dbl>, NO2_R2R3_2 <dbl>, NO2_R4R5_2 <dbl>, NO2_R5R6_2 <dbl>, …

<details class="code-fold">
<summary>Code</summary>

``` r
Nmin_TDN$abs_data_df
```

</details>

    # A tibble: 96 × 60
       row   column NO3_TDN_01 NO3_TDN_02 NO3_TDN_03 NO3_TDN_04 NO3_TDN_05
       <chr> <chr>       <dbl>      <dbl>      <dbl>      <dbl>      <dbl>
     1 A     1           0.095      0.097      0.113      0.114      0.132
     2 A     2           0.537      0.552      0.53       0.535      0.564
     3 A     3           0.528      0.559      0.528      0.534      0.55 
     4 A     4           0.562      0.555      0.521      0.531      0.546
     5 A     5           0.51       0.538      0.521      0.506      0.551
     6 A     6           0.507      0.552      0.54       0.551      0.555
     7 A     7           0.546      0.534      0.551      0.528      0.542
     8 A     8           0.078      0.079      0.097      0.102      0.105
     9 A     9           0.519      0.589      0.559      0.541      0.557
    10 A     10          0.543      0.535      0.528      0.544      0.563
    # ℹ 86 more rows
    # ℹ 53 more variables: NO3_TDN_06 <dbl>, NO3_TDN_07 <dbl>, NO3_TDN_08 <dbl>,
    #   NO3_TDN_09 <dbl>, NO3_TDN_10 <dbl>, NO3_TDN_11 <dbl>, NO3_TDN_12 <dbl>,
    #   NO3_TDN_13 <dbl>, NO3_TDN_14 <dbl>, NO3_TDN_15 <dbl>, NO3_TDN_16 <dbl>,
    #   NO3_TDN_17 <dbl>, NO3_TDN_18 <dbl>, NO3_TDN_19 <dbl>, NO3_TDN_20 <dbl>,
    #   NO3_TDN_21 <dbl>, NO3_TDN_22 <dbl>, NO3_TDN_23 <dbl>, NO3_TDN_24 <dbl>,
    #   NO3_TDN_25 <dbl>, NO3_TDN_26 <dbl>, NO3_TDN_27 <dbl>, NO3_TDN_28 <dbl>, …
…
</details>

    Joining with `by = join_by(row, column)`

<details class="code-fold">
<summary>Code</summary>

``` r
Nmin_all_abs
```

</details>

    # A tibble: 96 × 137
       row   column NH4_1F1 NH4_1F2_1 NH4_1F2_2 NH4_1F3 NH4_1F4 NH4_1F5 NH4_1G1
       <chr> <chr>    <dbl>     <dbl>     <dbl>   <dbl>   <dbl>   <dbl>   <dbl>
     1 A     1        0.039     0.039     0.039   0.038   0.039   0.039   0.039
     2 A     2        0.046     0.042     0.042   0.042   0.046   0.062   0.04 
     3 A     3        0.049     0.041     0.041   0.042   0.041   0.042   0.039
     4 A     4        0.042     0.041     0.041   0.042   0.042   0.04    0.039
     5 A     5        0.042     0.042     0.042   0.043   0.042   0.041   0.04 
     6 A     6        0.041     0.041     0.041   0.043   0.042   0.043   0.041
     7 A     7        0.042     0.041     0.041   0.044   0.041   0.043   0.04 
     8 A     8        0.039     0.038     0.038   0.039   0.039   0.039   0.039
     9 A     9        0.043     0.042     0.042   0.042   0.043   0.041   0.039
    10 A     10       0.042     0.041     0.041   0.042   0.042   0.046   0.04 
    # ℹ 86 more rows
    # ℹ 128 more variables: NH4_1G2 <dbl>, NH4_1G3 <dbl>, NH4_1G4 <dbl>,
    #   NH4_1G5 <dbl>, NH4_2F1_1 <dbl>, NH4_2F1_2 <dbl>, NH4_2F2_1 <dbl>,
    #   NH4_2F2_2 <dbl>, NH4_2F3_1 <dbl>, NH4_2F3_2 <dbl>, NH4_2F4_1 <dbl>,
    #   NH4_2F4_2 <dbl>, NH4_2F5_1 <dbl>, NH4_2F5_2 <dbl>, NH4_2F6_1 <dbl>,
    #   NH4_2F6_2 <dbl>, NH4_2P1 <dbl>, NH4_2P2 <dbl>, NH4_2P3 <dbl>,
    #   NH4_2P4 <dbl>, NH4_2P5 <dbl>, NH4_2P6_1 <dbl>, NH4_2P6_2 <dbl>, …
…
</details>

    Joining by: row, column
    Joining by: row, column

<details class="code-fold">
<summary>Code</summary>

``` r
Nmin_all_abs 
```

</details>

    # A tibble: 96 × 195
       row   column NH4_1F1 NH4_1F2_1 NH4_1F2_2 NH4_1F3 NH4_1F4 NH4_1F5 NH4_1G1
       <chr> <chr>    <dbl>     <dbl>     <dbl>   <dbl>   <dbl>   <dbl>   <dbl>
     1 A     1        0.039     0.039     0.039   0.038   0.039   0.039   0.039
     2 A     2        0.046     0.042     0.042   0.042   0.046   0.062   0.04 
     3 A     3        0.049     0.041     0.041   0.042   0.041   0.042   0.039
     4 A     4        0.042     0.041     0.041   0.042   0.042   0.04    0.039
     5 A     5        0.042     0.042     0.042   0.043   0.042   0.041   0.04 
     6 A     6        0.041     0.041     0.041   0.043   0.042   0.043   0.041
     7 A     7        0.042     0.041     0.041   0.044   0.041   0.043   0.04 
     8 A     8        0.039     0.038     0.038   0.039   0.039   0.039   0.039
     9 A     9        0.043     0.042     0.042   0.042   0.043   0.041   0.039
    10 A     10       0.042     0.041     0.041   0.042   0.042   0.046   0.04 
    # ℹ 86 more rows
    # ℹ 186 more variables: NH4_1G2 <dbl>, NH4_1G3 <dbl>, NH4_1G4 <dbl>,
    #   NH4_1G5 <dbl>, NH4_2F1_1 <dbl>, NH4_2F1_2 <dbl>, NH4_2F2_1 <dbl>,
    #   NH4_2F2_2 <dbl>, NH4_2F3_1 <dbl>, NH4_2F3_2 <dbl>, NH4_2F4_1 <dbl>,
    #   NH4_2F4_2 <dbl>, NH4_2F5_1 <dbl>, NH4_2F5_2 <dbl>, NH4_2F6_1 <dbl>,
    #   NH4_2F6_2 <dbl>, NH4_2P1 <dbl>, NH4_2P2 <dbl>, NH4_2P3 <dbl>,
    #   NH4_2P4 <dbl>, NH4_2P5 <dbl>, NH4_2P6_1 <dbl>, NH4_2P6_2 <dbl>, …
…
    ℹ Use `spec()` to retrieve the full column specification for this data.
    ℹ Specify the column types or set `show_col_types = FALSE` to quiet this message.

<details class="code-fold">
<summary>Code</summary>

``` r
Nmin_t3_maps <- import_abs_csv(maps_t3_file)
Nmin_t3_maps$abs_data_df 
```

</details>

    # A tibble: 96 × 38
       row   column NO3_R1R2_1 NO3_R2R3_1 NO3_R4R5_1 NO3_R5R6_1 NO3_R6R7_1
       <chr> <chr>  <chr>      <chr>      <chr>      <chr>      <chr>     
     1 A     1      Std        Std        Std        Std        Std       
     2 A     2      extr_1     empty      extr_4     extr_5     extr_6    
     3 A     3      83_t3_z3   93_t3_z3   empty      empty      empty     
     4 A     4      87_t3_z1   103_t3_z3  86_t3_z2   94_t3_z2   96_t3_z3  
     5 A     5      88_t3_z1   104_t3_z1  91_t3_z2   95_t3_z1   99_t3_z1  
     6 A     6      90_t3_z3   std_R2_t3  92_t3_z1   95_t3_z2   101_t3_z2 
     7 A     7      91_t3_z3   empty      93_t3_z1   96_t3_z2   std_R6_t3 
     8 A     8      92_t3_z2   empty      94_t3_z3   98_t3_z3   empty     
     9 A     9      95_t3_z3   empty      98_t3_z1   std_R5_t3  empty     
    10 A     10     97_t3_z1   empty      102_t3_z2  Std        Std       
    # ℹ 86 more rows
    # ℹ 31 more variables: NO3_R7R8_1 <chr>, NO2_R1R2_1 <chr>, NO2_R2R3_1 <chr>,
    #   NO2_R4R5_1 <chr>, NO2_R5R6_1 <chr>, NO2_R6R7_1 <chr>, NO2_R7R8_1 <chr>,
    #   NH4_R1R2_1 <chr>, NH4_R2R3_1 <chr>, NH4_R4R5_1 <chr>, NH4_R5R6_1 <chr>,
    #   NH4_R6R7_1 <chr>, NH4_R7R8_1 <chr>, NO3_R1R2_2 <chr>, NO3_R2R3_2 <chr>,
    #   NO3_R4R5_2 <chr>, NO3_R5R6_2 <chr>, NO3_R6R7_2 <chr>, NO3_R7R8_2 <chr>,
    #   NO2_R1R2_2 <chr>, NO2_R2R3_2 <chr>, NO2_R4R5_2 <chr>, NO2_R5R6_2 <chr>, …
…
    ℹ Use `spec()` to retrieve the full column specification for this data.
    ℹ Specify the column types or set `show_col_types = FALSE` to quiet this message.

<details class="code-fold">
<summary>Code</summary>

``` r
Nmin_t1t1_maps <- import_abs_csv(maps_t1t1_file)
Nmin_t1t1_maps$abs_data_df
```

</details>

    # A tibble: 96 × 101
       row   column NH4_1F1  NH4_1F2_1 NH4_1F2_2 NH4_1F3  NH4_1F4  NH4_1F5   NH4_1G1
       <chr> <chr>  <chr>    <chr>     <chr>     <chr>    <chr>    <chr>     <chr>  
     1 A     1      Std      Std       Std       Std      Std      Std       Std    
     2 A     2      81_t1_z2 97_t1_z1  empty     89_t1_z3 81_t1_z1 Std_3_t1  1_t1   
     3 A     3      82_t1_z2 98_t1_z1  empty     90_t1_z3 82_t1_z3 98_t1_z3  2_t1   
     4 A     4      83_t1_z2 99_t1_z1  empty     91_t1_z1 83_t1_z3 99_t1_z3… 3_t1   
     5 A     5      84_t1_z1 100_t1_z1 empty     92_t1_z2 84_t1_z2 100_t1_z2 4_t1   
     6 A     6      85_t1_z1 101_t1_z3 empty     93_t1_z2 85_t1_z2 101_t1_z2 5_t1   
     7 A     7      86_t1_z3 102_t1_z3 empty     94_t1_z3 86_t1_z1 102_t1_z1 6_t1   
     8 A     8      extr     extr      empty     extr     extr     extr      extr   
     9 A     9      87_t1_z3 103_t1_z1 empty     95_t1_z2 87_t1_z1 103_t1_z3 empty  
    10 A     10     88_t1_z3 104_t1_z1 empty     96_t1_z3 88_t1_z1 104_t1_z3 8_t1   
    # ℹ 86 more rows
    # ℹ 92 more variables: NH4_1G2 <chr>, NH4_1G3 <chr>, NH4_1G4 <chr>,
    #   NH4_1G5 <chr>, NO2_1F1 <chr>, NO2_1F2_1 <chr>, NO2_1F2_2 <chr>,
    #   NO2_1F3 <chr>, NO2_1F4 <chr>, NO2_1F5 <chr>, NO2_1G1 <chr>, NO2_1G2 <chr>,
    #   NO2_1G3 <chr>, NO2_1G4 <chr>, NO2_1G5 <chr>, NO3_1F1 <chr>,
    #   NO3_1F2_1 <chr>, NO3_1F2_2 <chr>, NO3_1F3 <chr>, NO3_1F4 <chr>,
    #   NO3_1F5 <chr>, NO3_1G1 <chr>, NO3_1G2 <chr>, NO3_1G3 <chr>, …
…
</details>

    Joining by: row, column
    Joining by: row, column

<details class="code-fold">
<summary>Code</summary>

``` r
Nmin_all_maps
```

</details>

    # A tibble: 96 × 194
       row   column NH4_1F1  NH4_1F2_1 NH4_1F2_2 NH4_1F3  NH4_1F4  NH4_1F5   NH4_1G1
       <chr> <chr>  <chr>    <chr>     <chr>     <chr>    <chr>    <chr>     <chr>  
     1 A     1      Std      Std       Std       Std      Std      Std       Std    
     2 A     2      81_t1_z2 97_t1_z1  empty     89_t1_z3 81_t1_z1 Std_3_t1  1_t1   
     3 A     3      82_t1_z2 98_t1_z1  empty     90_t1_z3 82_t1_z3 98_t1_z3  2_t1   
     4 A     4      83_t1_z2 99_t1_z1  empty     91_t1_z1 83_t1_z3 99_t1_z3… 3_t1   
     5 A     5      84_t1_z1 100_t1_z1 empty     92_t1_z2 84_t1_z2 100_t1_z2 4_t1   
     6 A     6      85_t1_z1 101_t1_z3 empty     93_t1_z2 85_t1_z2 101_t1_z2 5_t1   
     7 A     7      86_t1_z3 102_t1_z3 empty     94_t1_z3 86_t1_z1 102_t1_z1 6_t1   
     8 A     8      extr     extr      empty     extr     extr     extr      extr   
     9 A     9      87_t1_z3 103_t1_z1 empty     95_t1_z2 87_t1_z1 103_t1_z3 empty  
    10 A     10     88_t1_z3 104_t1_z1 empty     96_t1_z3 88_t1_z1 104_t1_z3 8_t1   
    # ℹ 86 more rows
    # ℹ 185 more variables: NH4_1G2 <chr>, NH4_1G3 <chr>, NH4_1G4 <chr>,
    #   NH4_1G5 <chr>, NO2_1F1 <chr>, NO2_1F2_1 <chr>, NO2_1F2_2 <chr>,
    #   NO2_1F3 <chr>, NO2_1F4 <chr>, NO2_1F5 <chr>, NO2_1G1 <chr>, NO2_1G2 <chr>,
    #   NO2_1G3 <chr>, NO2_1G4 <chr>, NO2_1G5 <chr>, NO3_1F1 <chr>,
    #   NO3_1F2_1 <chr>, NO3_1F2_2 <chr>, NO3_1F3 <chr>, NO3_1F4 <chr>,
    #   NO3_1F5 <chr>, NO3_1G1 <chr>, NO3_1G2 <chr>, NO3_1G3 <chr>, …
…
<details class="code-fold">
<summary>Code</summary>

``` r
# join csv's
Nmin_all_metadata <- bind_rows(Nmin_t1t2_metadata, Nmin_t3_metadata, TDN_metadata)

# export it
Nmin_all_metadata |> write_rds("output/data/Nmin_metadata.rds")
Nmin_all_metadata
```

</details>

    # A tibble: 193 × 17
       plate_id  date  time  sampling_time std_column std_sp std_unit    std_prep
       <chr>     <chr> <lgl> <chr>         <chr>      <chr>  <chr>       <chr>   
     1 NH4_1F1   <NA>  NA    t1            1-12       NH4    mg NH4+ L-1 H2O     
     2 NH4_1F2_1 <NA>  NA    t1            1-12       NH4    mg NH4+ L-1 H2O     
     3 NH4_1F2_2 <NA>  NA    t1            1-12       NH4    mg NH4+ L-1 H2O     
     4 NH4_1F3   <NA>  NA    t1            1-12       NH4    mg NH4+ L-1 H2O     
     5 NH4_1F4   <NA>  NA    t1            1-12       NH4    mg NH4+ L-1 H2O     
     6 NH4_1F5   <NA>  NA    t1            1-12       NH4    mg NH4+ L-1 H2O     
     7 NH4_1G1   <NA>  NA    t1            1-12       NH4    mg NH4+ L-1 H2O     
     8 NH4_1G2   <NA>  NA    t1            1-12       NH4    mg NH4+ L-1 H2O     
     9 NH4_1G3   <NA>  NA    t1            1-12       NH4    mg NH4+ L-1 H2O     
    10 NH4_1G4   <NA>  NA    t1            1-12       NH4    mg NH4+ L-1 H2O     
    # ℹ 183 more rows
    # ℹ 9 more variables: std_conc <chr>, sample_dilution <chr>,
    #   extractant_column <dbl>, extractant_sp <chr>, extractant_unit <chr>,
    #   extractant_conc <dbl>, empty_column <chr>, wait_min <chr>, wavelength <chr>
…
