…
    fw_fb_per_plant = fw_fb_per_pot / nb_fb,
    fw_w_per_plant = fw_w_per_pot / nb_w,
    dw_fb_per_plant = dw_fb_per_pot / nb_fb,
    dw_w_per_plant = dw_w_per_pot / nb_w,
    
    .keep = "unused"
    ) 

# check it out
yield_per_plant
```

</details>

    # A tibble: 88 × 21
    # Rowwise: 
       biol_unit_nb expe  sample_short soil  crop_diversity cs    bloc 
              <dbl> <chr> <chr>        <fct> <chr>          <chr> <fct>
     1            1 Pot   t2_201_F     Conv  SC             F     B1   
     2            2 Pot   t2_202_W     Conv  SC             W     B1   
     3            3 Pot   t2_203_IC    Conv  IC             IC    B1   
     4            5 Pot   t2_205_F     Ref   SC             F     B1   
     5            6 Pot   t2_206_W     Ref   SC             W     B1   
     6            7 Pot   t2_207_IC    Ref   IC             IC    B1   
     7            9 Pot   t2_209_F     Auto  SC             F     B1   
     8           10 Pot   t2_210_W     Auto  SC             W     B1   
     9           11 Pot   t2_211_IC    Auto  IC             IC    B1   
    10           13 Pot   t2_213_F     ABC   SC             F     B1   
    # ℹ 78 more rows
    # ℹ 14 more variables: sampling_time <chr>, yd_rs_comment <chr>,
    #   height_per_fb <dbl>, stem_per_fb <dbl>, height_per_w <dbl>,
    #   till_per_w <dbl>, fw_fb_per_pot <dbl>, fw_w_per_pot <dbl>,
    #   dw_fb_per_pot <dbl>, dw_w_per_pot <dbl>, fw_fb_per_plant <dbl>,
    #   fw_w_per_plant <dbl>, dw_fb_per_plant <dbl>, dw_w_per_plant <dbl>
…
