…
Here we import all our datasets, with various functions from the package
`plate2N`. The output is displayed each time a new function is used.

## 1.1 - Nmin, TDN

``` r
# Nmin for t1 and t2
(Nmin_t1t2_abs <- txt_to_tibble("raw_data/Nmin/"))
```

    # A tibble: 891 × 13
       row   X1    X2    X3    X4    X5    X6    X7    X8    X9    X10   X11   X12  
       <chr> <chr> <chr> <chr> <chr> <chr> <chr> <chr> <chr> <chr> <chr> <chr> <chr>
     1 NH4_… 1     2     3     4     5     6     7     8     9     10    11    12   
     2 A     0.039 0.046 0.049 0.042 0.042 0.041 0.042 0.039 0.043 0.042 0.038 0.038
     3 B     0.043 0.046 0.048 0.042 0.042 0.041 0.041 0.039 0.043 0.041 0.038 0.042
     4 C     0.047 0.045 0.049 0.042 0.041 0.040 0.041 0.039 0.044 0.041 0.038 0.046
     5 D     0.053 0.055 0.048 0.042 0.042 0.041 0.041 0.039 0.043 0.042 0.038 0.053
     6 E     0.059 0.041 0.042 0.041 0.041 0.046 0.041 0.039 0.043 0.041 0.038 0.061
     7 F     0.067 0.043 0.042 0.044 0.041 0.045 0.041 0.039 0.042 0.041 0.038 0.070
     8 G     0.096 0.042 0.042 0.041 0.041 0.045 0.041 0.039 0.042 0.040 0.038 0.103
     9 H     0.126 0.042 0.042 0.041 0.042 0.045 0.042 0.039 0.042 0.041 0.038 0.122
    10 NH4_… 1     2     3     4     5     6     7     8     9     10    11    12   
    # ℹ 881 more rows

``` r
(Nmin_t1t2_map <- csv_to_tibble("raw_data/Nmin/Nmin_maps.csv"))
```

    # A tibble: 891 × 13
       row   X1    X2    X3    X4    X5    X6    X7    X8    X9    X10   X11   X12  
       <chr> <chr> <chr> <chr> <chr> <chr> <chr> <chr> <chr> <chr> <chr> <chr> <chr>
     1 NH4_… 1     2     3     4     5     6     7     8     9     10    11    12   
     2 A     Std   81_t… 82_t… 83_t… 84_t… 85_t… 86_t… extr  87_t… 88_t… empty Std  
     3 B     Std   81_t… 82_t… 83_t… 84_t… 85_t… 86_t… extr  87_t… 88_t… empty Std  
     4 C     Std   81_t… 82_t… 83_t… 84_t… 85_t… 86_t… extr  87_t… 88_t… empty Std  
     5 D     Std   81_t… 82_t… 83_t… 84_t… 85_t… 86_t… extr  87_t… 88_t… empty Std  
     6 E     Std   89_t… 90_t… 91_t… 92_t… 93_t… 94_t… extr  95_t… 96_t… empty Std  
     7 F     Std   89_t… 90_t… 91_t… 92_t… 93_t… 94_t… extr  95_t… 96_t… empty Std  
     8 G     Std   89_t… 90_t… 91_t… 92_t… 93_t… 94_t… extr  95_t… 96_t… empty Std  
     9 H     Std   89_t… 90_t… 91_t… 92_t… 93_t… 94_t… extr  95_t… 96_t… empty Std  
    10 NH4_… 1     2     3     4     5     6     7     8     9     10    11    12   
    # ℹ 881 more rows
…
# TDN (map csv not in the right format --> back to import_csv = manual import)
TDN_abs <- csv_to_tibble("raw_data/TDN/TDN_data.csv")
(TDN_map <- 
    read_csv(
      "raw_data/TDN/TDN_maps.csv", 
      col_names = FALSE, col_select = X14:X26, show_col_types = FALSE) |> 
    na.omit() |> 
    rename_with(~c("row", paste0("X", seq(1:12)))))
```

    # A tibble: 531 × 13
       row   X1    X2    X3    X4    X5    X6    X7    X8    X9    X10   X11   X12  
       <chr> <chr> <chr> <chr> <chr> <chr> <chr> <chr> <chr> <chr> <chr> <chr> <chr>
     1 NO2_… 1     2     3     4     5     6     7     8     9     10    11    12   
     2 A     Std   102_… 103_… 86_t… 101_… 84_t… 86_t… extr  95_t… 83_t… 93_t… Fiel…
     3 B     Std   102_… 103_… 86_t… 101_… 84_t… 86_t… extr  95_t… 83_t… 93_t… Fiel…
     4 C     Std   102_… 103_… 86_t… 101_… 84_t… 86_t… extr  95_t… 83_t… 93_t… Fiel…
     5 D     Std   102_… 103_… 86_t… 101_… 84_t… 86_t… extr  95_t… 83_t… 93_t… Fiel…
     6 E     Std   92_t… 82_t… 94_t… 87_t… 91_t… 100_… extr  88_t… 96_t… 95_t… Fiel…
     7 F     Std   92_t… 82_t… 94_t… 87_t… 91_t… 100_… extr  88_t… 96_t… 95_t… Fiel…
     8 G     Std   92_t… 82_t… 94_t… 87_t… 91_t… 100_… extr  88_t… 96_t… 95_t… Fiel…
     9 H     Std   92_t… 82_t… 94_t… 87_t… 91_t… 100_… extr  88_t… 96_t… 95_t… Fiel…
    10 NO2_… 1     2     3     4     5     6     7     8     9     10    11    12   
    # ℹ 521 more rows

``` r
# Example for Skanit-formatted csv
(Skanit_abs <- skanit_to_tibble("raw_data/Skanit_example/MR_R1_t0.csv")$abs)
```

    # A tibble: 90 × 13
       row   X1    X2    X3    X4    X5    X6    X7    X8    X9    X10   X11   X12  
       <chr> <chr> <chr> <chr> <chr> <chr> <chr> <chr> <chr> <chr> <chr> <chr> <chr>
     1 M12   1     2     3     4     5     6     7     8     9     10    11    12   
     2 A     1.44… 1.48… 1.43… 1.47… 1.51… 1.49… 1.50… 1.52… 1.53… 1.52… 1.51… 1.53…
     3 B     1.45… 1.52… 1.50… 1.49… 1.53… 1.56… 1.53… 1.53… 1.53… 1.54… 1.54… 1.54…
     4 C     1.51… 1.54… 1.52… 1.53… 1.56… 1.54… 1.56… 1.57… 1.55… 1.55… 1.56… 1.55…
     5 D     1.53… 1.55… 1.57… 1.52… 1.54… 1.56… 1.55… 1.56… 1.55… 1.56… 1.55… 1.57…
     6 E     1.53… 1.55… 1.55… 1.53… 1.55… 1.55… 1.55… 1.55… 1.58… 1.56… 1.56… 1.55…
     7 F     1.52… 1.57… 1.55… 1.53… 1.52… 1.56… 1.57… 1.58… 1.56… 1.55… 1.57… 1.55…
     8 G     1.53… 1.55… 1.53… 1.53… 1.56… 1.55… 1.57… 1.55… 1.55… 1.56… 1.56… 1.57…
     9 H     1.49… 1.54… 1.52… 1.51… 1.55… 1.55… 1.56… 1.57… 1.53… 1.56… 1.57… 1.58…
    10 M16   1     2     3     4     5     6     7     8     9     10    11    12   
    # ℹ 80 more rows

``` r
(Skanit_map <- skanit_to_tibble("raw_data/Skanit_example/MR_R1_t0.csv")$map)
```

    # A tibble: 90 × 13
       row   X1    X2    X3    X4    X5    X6    X7    X8    X9    X10   X11   X12  
       <chr> <chr> <chr> <chr> <chr> <chr> <chr> <chr> <chr> <chr> <chr> <chr> <chr>
     1 M12   1     2     3     4     5     6     7     8     9     10    11    12   
     2 A     Std0… Std0… Std0… Std0… Std0… Std0… Std0… Std0… Std0… Std0… Std0… Std0…
     3 B     Std0… Std0… Std0… Std0… Std0… Std0… Std0… Std0… Std0… Std0… Std0… Std0…
     4 C     Std0… Std0… Std0… Std0… Std0… Std0… Std0… Std0… Std0… Std0… Std0… Std0…
     5 D     Std0… Std0… Std0… Std0… Std0… Std0… Std0… Std0… Std0… Std0… Std0… Std0…
     6 E     Std0… Std0… Std0… Std0… Std0… Std0… Std0… Std0… Std0… Std0… Std0… Std0…
     7 F     Std0… Std0… Std0… Std0… Std0… Std0… Std0… Std0… Std0… Std0… Std0… Std0…
     8 G     Std0… Std0… Std0… Std0… Std0… Std0… Std0… Std0… Std0… Std0… Std0… Std0…
     9 H     Std0… Std0… Std0… Std0… Std0… Std0… Std0… Std0… Std0… Std0… Std0… Std0…
    10 M16   1     2     3     4     5     6     7     8     9     10    11    12   
    # ℹ 80 more rows
…
``` r
samples <- sample_list$short 
plate_ids <- sample_list$plate_id |> unique()
n_samples_per_plate <- length(samples) / length(plate_ids)

tibble_map_pmn <- map_plates(
  samples, 
  n_samples_per_plate, 
  plate_ids,column_curves = c(1,12), column_blank = 8)

#check it out
tibble_map_pmn
```

    # A tibble: 270 × 13
       row   X1    X2    X3    X4    X5    X6    X7    X8    X9    X10   X11   X12  
       <chr> <chr> <chr> <chr> <chr> <chr> <chr> <chr> <chr> <chr> <chr> <chr> <chr>
     1 NO3_… 1     2     3     4     5     6     7     8     9     10    11    12   
     2 A     Std   Fiel… Fiel… Fiel… Fiel… Fiel… Fiel… extr  Fiel… Fiel… Fiel… Std  
     3 B     Std   Fiel… Fiel… Fiel… Fiel… Fiel… Fiel… extr  Fiel… Fiel… Fiel… Std  
     4 C     Std   Fiel… Fiel… Fiel… Fiel… Fiel… Fiel… extr  Fiel… Fiel… Fiel… Std  
     5 D     Std   Fiel… Fiel… Fiel… Fiel… Fiel… Fiel… extr  Fiel… Fiel… Fiel… Std  
     6 E     Std   Fiel… Fiel… Fiel… Fiel… Fiel… Fiel… extr  empty empty empty Std  
     7 F     Std   Fiel… Fiel… Fiel… Fiel… Fiel… Fiel… extr  empty empty empty Std  
     8 G     Std   Fiel… Fiel… Fiel… Fiel… Fiel… Fiel… extr  empty empty empty Std  
     9 H     Std   Fiel… Fiel… Fiel… Fiel… Fiel… Fiel… extr  empty empty empty Std  
    10 NO3_… 1     2     3     4     5     6     7     8     9     10    11    12   
    # ℹ 260 more rows
…
``` r
PMN_map <- csv_to_tibble("raw_data/PMN/PMN_map_manually_checked.csv") |> 
  filter_out(row == "row")
PMN_abs <- txt_to_tibble("raw_data/PMN")
```

It appears that the plates are not in the same order between map and
abs, but this should not be a problem. Check it out anyway:

``` r
PMN_map ; PMN_abs
```

    # A tibble: 270 × 13
       row   X1    X2    X3    X4    X5    X6    X7    X8    X9    X10   X11   X12  
       <chr> <chr> <chr> <chr> <chr> <chr> <chr> <chr> <chr> <chr> <chr> <chr> <chr>
     1 NO3_… 1     2     3     4     5     6     7     8     9     10    11    12   
     2 A     Std   Fiel… Fiel… Fiel… Fiel… Fiel… Fiel… extr  Fiel… Fiel… Fiel… Std  
     3 B     Std   Fiel… Fiel… Fiel… Fiel… Fiel… Fiel… extr  Fiel… Fiel… Fiel… Std  
     4 C     Std   Fiel… Fiel… Fiel… Fiel… Fiel… Fiel… extr  Fiel… Fiel… Fiel… Std  
     5 D     Std   Fiel… Fiel… Fiel… Fiel… Fiel… Fiel… extr  Fiel… Fiel… Fiel… Std  
     6 E     Std   Fiel… Fiel… Fiel… Fiel… Fiel… Fiel… extr  empty empty empty Std  
     7 F     Std   Fiel… Fiel… Fiel… Fiel… Fiel… Fiel… extr  empty empty empty Std  
     8 G     Std   Fiel… Fiel… Fiel… Fiel… Fiel… Fiel… extr  empty empty empty Std  
     9 H     Std   Fiel… Fiel… Fiel… Fiel… Fiel… Fiel… extr  empty empty empty Std  
    10 NO3_… 1     2     3     4     5     6     7     8     9     10    11    12   
    # ℹ 260 more rows

    # A tibble: 270 × 13
       row   X1    X2    X3    X4    X5    X6    X7    X8    X9    X10   X11   X12  
       <chr> <chr> <chr> <chr> <chr> <chr> <chr> <chr> <chr> <chr> <chr> <chr> <chr>
     1 NH4_… 1     2     3     4     5     6     7     8     9     10    11    12   
     2 A     0.039 0.041 0.040 0.040 0.040 0.041 0.041 0.041 0.041 0.041 0.042 0.038
     3 B     0.043 0.040 0.040 0.040 0.039 0.041 0.040 0.042 0.041 0.042 0.042 0.043
     4 C     0.047 0.040 0.040 0.040 0.039 0.041 0.040 0.041 0.046 0.041 0.042 0.049
     5 D     0.060 0.040 0.040 0.040 0.039 0.040 0.039 0.040 0.043 0.041 0.041 0.056
     6 E     0.066 0.043 0.042 0.043 0.042 0.041 0.041 0.040 0.042 0.039 0.038 0.066
     7 F     0.075 0.042 0.042 0.043 0.042 0.041 0.041 0.041 0.042 0.039 0.041 0.075
     8 G     0.116 0.042 0.042 0.043 0.041 0.041 0.041 0.041 0.042 0.039 0.039 0.104
     9 H     0.139 0.043 0.044 0.042 0.041 0.042 0.041 0.041 0.042 0.039 0.039 0.131
    10 NH4_… 1     2     3     4     5     6     7     8     9     10    11    12   
    # ℹ 260 more rows
…
``` r
soil_sample_list <- read_csv("raw_data/PNR/PNR_sample_list.csv", show_col_types = FALSE) |> 
  mutate(
    zone = str_extract(samples, ".*_(\\w\\d)$", group = 1),
    biol_unit_nb = str_extract(samples, "(\\w*)_(\\w*)", group = 1),
    biol_unit_nb = as.double(case_when(biol_unit_nb == "Std_soil" ~ "210", .default = biol_unit_nb)),
    batch = rep(paste0("R", seq(1:8)),10) |> sort()
  ) 

# check it out
soil_sample_list
```

    # A tibble: 80 × 4
       samples     zone  biol_unit_nb batch
       <chr>       <chr>        <dbl> <chr>
     1 83_z3       z3              83 R1   
     2 87_z1       z1              87 R1   
     3 88_z1       z1              88 R1   
     4 90_z3       z3              90 R1   
     5 91_z3       z3              91 R1   
     6 92_z2       z2              92 R1   
     7 95_z3       z3              95 R1   
     8 97_z1       z1              97 R1   
     9 103_z2      z2             103 R1   
    10 Std_soil_R1 R1             210 R1   
    # ℹ 70 more rows
…
# check it out
slurry_samples
```

    # A tibble: 560 × 7
       samples zone  biol_unit_nb batch incubation slurry_sample extr_id   
       <chr>   <chr>        <dbl> <chr> <chr>      <chr>         <chr>     
     1 83_z3   z3              83 R1    T0         83_z3_T0      extr      
     2 83_z3   z3              83 R1    T6         83_z3_T6      extr      
     3 83_z3   z3              83 R1    T2         83_z3_T2      extr      
     4 83_z3   z3              83 R1    T24        83_z3_T24     extr      
     5 83_z3   z3              83 R1    T4         83_z3_T4      extr      
     6 83_z3   z3              83 R1    T26        83_z3_T26     extr      
     7 83_z3   z3              83 R1    ctrl       83_z3_ctrl    blank_ctrl
     8 87_z1   z1              87 R1    T0         87_z1_T0      extr      
     9 87_z1   z1              87 R1    T6         87_z1_T6      extr      
    10 87_z1   z1              87 R1    T2         87_z1_T2      extr      
    # ℹ 550 more rows
…
``` r
map_list <- nh4 |> 
  bind_rows(ctrl) |> 
  arrange(batch,reshuffle) |> 
  mutate(
    plate_nb_per_batch = rep(sort(rep(1:4, 18)), 8),
    plate_id_generic = paste0(batch, "_", plate_nb_per_batch),
    plate_id_NO2 = paste0("NO2_", plate_id_generic),
    plate_id_NO3 = paste0("NO3_", plate_id_generic))

# check it out
map_list
```

    # A tibble: 576 × 13
       samples zone  biol_unit_nb batch incubation slurry_sample extr_id
       <chr>   <chr>        <dbl> <chr> <chr>      <chr>         <chr>  
     1 83_z3   z3              83 R1    T0         83_z3_T0      extr   
     2 83_z3   z3              83 R1    T6         83_z3_T6      extr   
     3 83_z3   z3              83 R1    T2         83_z3_T2      extr   
     4 83_z3   z3              83 R1    T24        83_z3_T24     extr   
     5 83_z3   z3              83 R1    T4         83_z3_T4      extr   
     6 83_z3   z3              83 R1    T26        83_z3_T26     extr   
     7 87_z1   z1              87 R1    T0         87_z1_T0      extr   
     8 87_z1   z1              87 R1    T6         87_z1_T6      extr   
     9 87_z1   z1              87 R1    T2         87_z1_T2      extr   
    10 87_z1   z1              87 R1    T24        87_z1_T24     extr   
    # ℹ 566 more rows
    # ℹ 6 more variables: col_to_order <chr>, reshuffle <dbl>,
    #   plate_nb_per_batch <int>, plate_id_generic <chr>, plate_id_NO2 <chr>,
    #   plate_id_NO3 <chr>
…
tibble_map_pnr <- map_plates(
  samples = rep(samples,2), 
  n_samples_per_plate, 
  plate_ids = c(
    paste0("NO3_",plate_ids), 
    paste0("NO2_",plate_ids)), 
  column_curves = c(1,12), 
  column_blank = 2, rename_na = "blank_ctrl")

#check it out
tibble_map_pnr
```

    # A tibble: 576 × 13
       row   X1    X2    X3    X4    X5    X6    X7    X8    X9    X10   X11   X12  
       <chr> <chr> <chr> <chr> <chr> <chr> <chr> <chr> <chr> <chr> <chr> <chr> <chr>
     1 NO3_… 1     2     3     4     5     6     7     8     9     10    11    12   
     2 A     Std   extr  83_z… 83_z… 83_z… 87_z… 87_z… 87_z… 88_z… 88_z… 88_z… Std  
     3 B     Std   extr  83_z… 83_z… 83_z… 87_z… 87_z… 87_z… 88_z… 88_z… 88_z… Std  
     4 C     Std   extr  83_z… 83_z… 83_z… 87_z… 87_z… 87_z… 88_z… 88_z… 88_z… Std  
     5 D     Std   extr  83_z… 83_z… 83_z… 87_z… 87_z… 87_z… 88_z… 88_z… 88_z… Std  
     6 E     Std   extr  83_z… 83_z… 83_z… 87_z… 87_z… 87_z… 88_z… 88_z… 88_z… Std  
     7 F     Std   extr  83_z… 83_z… 83_z… 87_z… 87_z… 87_z… 88_z… 88_z… 88_z… Std  
     8 G     Std   extr  83_z… 83_z… 83_z… 87_z… 87_z… 87_z… 88_z… 88_z… 88_z… Std  
     9 H     Std   extr  83_z… 83_z… 83_z… 87_z… 87_z… 87_z… 88_z… 88_z… 88_z… Std  
    10 NO3_… 1     2     3     4     5     6     7     8     9     10    11    12   
    # ℹ 566 more rows
…
# cf structure: plate ids should appear from row 3, every 11th row
row_id <- seq(3,nrow(PNR_raw_abs), 11)

# replace those cells by plate ids
PNR_raw_abs$row[row_id] <- plate_ids$plate_ids

# then remove useless rows
PNR_abs <- PNR_raw_abs |> 
  filter(row %in% c(LETTERS[1:8], plate_ids$plate_ids))

# check it out
PNR_abs
```

    # A tibble: 576 × 13
       row         X1    X2 X3       X4 X5       X6    X7    X8    X9    X10    X11
       <chr>    <dbl> <dbl> <chr> <dbl> <chr> <dbl> <dbl> <dbl> <dbl>  <dbl>  <dbl>
     1 NO3_R1_1 1     2     3     4     5     6     7     8     9     10     11    
     2 A        0.076 0.079 0.17  0.177 0.18  0.146 0.138 0.14  0.137  0.132  0.136
     3 B        0.079 0.077 0.163 0.166 0.17  0.138 0.132 0.137 0.133  0.131  0.133
     4 C        0.084 0.076 0.159 0.164 0.166 0.14  0.13  0.136 0.132  0.131  0.132
     5 D        0.093 0.076 0.159 0.165 0.17  0.137 0.129 0.134 0.129  0.128  0.131
     6 E        0.104 0.075 0.176 0.211 0.214 0.14  0.168 0.163 0.137  0.166  0.171
     7 F        0.151 0.075 0.172 0.207 0.21  0.136 0.161 0.161 0.134  0.165  0.171
     8 G        0.24  0.075 0.176 0.207 0.211 0.137 0.164 0.163 0.13   0.164  0.171
     9 H        0.34  0.077 0.182 0.215 0.218 0.143 0.173 0.167 0.14   0.175  0.175
    10 NO3_R1_2 1     2     3     4     5     6     7     8     9     10     11    
    # ℹ 566 more rows
    # ℹ 1 more variable: X12 <dbl>
…
# TDN
TDN_vertical <- join_abs_map(list(TDN_abs, TDN_map), dataset = "TDN-")

# PMN
PMN_vertical <- join_abs_map(list(PMN_abs, PMN_map), dataset = "PMN-")

# PNR
PNR_vertical <- join_abs_map(list(PNR_abs, PNR_map), dataset = "PNR-")


## Check them out
Nmin_t1t2_vertical; Nmin_t3_vertical; TDN_vertical; PMN_vertical; PNR_vertical 
```

    # A tibble: 96 × 200
       row   column `Nmint1t2-abs-NH4_1F1` `Nmint1t2-abs-NH4_1F2_1`
       <chr> <chr>  <chr>                  <chr>                   
     1 A     1      0.039                  0.039                   
     2 A     2      0.046                  0.042                   
     3 A     3      0.049                  0.041                   
     4 A     4      0.042                  0.041                   
     5 A     5      0.042                  0.042                   
     6 A     6      0.041                  0.041                   
     7 A     7      0.042                  0.041                   
     8 A     8      0.039                  0.038                   
     9 A     9      0.043                  0.042                   
    10 A     10     0.042                  0.041                   
    # ℹ 86 more rows
    # ℹ 196 more variables: `Nmint1t2-abs-NH4_1F2_2` <chr>,
    #   `Nmint1t2-abs-NH4_1F3` <chr>, `Nmint1t2-abs-NH4_1F4` <chr>,
    #   `Nmint1t2-abs-NH4_1F5` <chr>, `Nmint1t2-abs-NH4_1G1` <chr>,
    #   `Nmint1t2-abs-NH4_1G2` <chr>, `Nmint1t2-abs-NH4_1G3` <chr>,
    #   `Nmint1t2-abs-NH4_1G4` <chr>, `Nmint1t2-abs-NH4_1G5` <chr>,
    #   `Nmint1t2-abs-NH4_2F1_1` <chr>, `Nmint1t2-abs-NH4_2F1_2` <chr>, …

    # A tibble: 96 × 74
       row   column `Nmint3-abs-NO3_R1R2_1` `Nmint3-abs-NO3_R2R3_1`
       <chr> <chr>  <chr>                   <chr>                  
     1 A     1      0.094                   0.134                  
     2 A     2      0.085                   0.089                  
     3 A     3      0.277                   0.151                  
     4 A     4      0.152                   0.147                  
     5 A     5      0.186                   0.182                  
     6 A     6      0.149                   0.304                  
     7 A     7      0.187                   0.205                  
     8 A     8      0.135                   0.22                   
     9 A     9      0.136                   0.227                  
    10 A     10     0.176                   0.086                  
    # ℹ 86 more rows
    # ℹ 70 more variables: `Nmint3-abs-NO3_R4R5_1` <chr>,
    #   `Nmint3-abs-NO3_R5R6_1` <chr>, `Nmint3-abs-NO3_R6R7_1` <chr>,
    #   `Nmint3-abs-NO3_R7R8_1` <chr>, `Nmint3-abs-NO2_R1R2_1` <chr>,
    #   `Nmint3-abs-NO2_R2R3_1` <chr>, `Nmint3-abs-NO2_R4R5_1` <chr>,
    #   `Nmint3-abs-NO2_R5R6_1` <chr>, `Nmint3-abs-NO2_R6R7_1` <chr>,
    #   `Nmint3-abs-NO2_R7R8_1` <chr>, `Nmint3-abs-NH4_R1R2_1` <chr>, …
…
