…
## 1.1 - Manual records

This section allows the removal of wells that “we know” are failed wells
(e.g., something went wrong during pipetting…).

First, we create a template document to record identifiers of failed
wells. To unequivocally identify a well, 3 pieces of info are needed:
dataset, plate id, well id.

``` r
(template <- failed_wells_template(nrow = 30))
```

    # A tibble: 30 × 3
       dataset plate_id well_id
       <chr>   <chr>    <chr>  
     1 ""      ""       ""     
     2 ""      ""       ""     
     3 ""      ""       ""     
     4 ""      ""       ""     
     5 ""      ""       ""     
     6 ""      ""       ""     
     7 ""      ""       ""     
     8 ""      ""       ""     
     9 ""      ""       ""     
    10 ""      ""       ""     
    # ℹ 20 more rows
…
## 2.2 - Sample wells

First, extract data for wells containing extractant and have a look at
its variation

``` r
extr_data <- extract_extractant(raw_abs_clean)
(extr_avg <- extractant_average(raw_abs_clean) |> 
  arrange(desc(extr_coeff_var_percent)))
```

    # A tibble: 194 × 5
       plate_id   map   extr_avg extr_sdev extr_coeff_var_percent
       <chr>      <chr>    <dbl>     <dbl>                  <dbl>
     1 NO3_2P6_2  extr    0.0941   0.0331                   35.1 
     2 NH4_2F2_2  extr    0.0405   0.00748                  18.5 
     3 NO3_R7R8_1 extr    0.0825   0.0135                   16.4 
     4 NO2_R4R5_1 extr    0.039    0.00270                   6.91
     5 NO3_TDN_38 extr    0.0714   0.00472                   6.61
     6 NH4_2P2    extr    0.0401   0.00242                   6.02
     7 NO3_2F1_1  extr    0.0718   0.00377                   5.25
     8 NO2_2P6_1  extr    0.0372   0.00158                   4.24
     9 NO2_2F1_1  extr    0.0376   0.00151                   4.00
    10 NO2_TDN_03 extr    0.0365   0.00141                   3.87
    # ℹ 184 more rows
…
``` r
threshold <- 5

suspicious_plates <- raw_abs_clean |> 
  qc_raw_extr(suppress_warning = TRUE, max_coeff = threshold)

suspicious_extr <- suspicious_extr(
  raw_abs_clean, suspicious_plate_id = suspicious_plates, max_coeff = threshold)

# check it out
suspicious_extr
```

    # A tibble: 68 × 12
    # Groups:   plate_id, map [7]
       row   column well_id unique_well_id dataset  plate_id  map     abs std_sp
       <chr> <chr>  <chr>   <chr>          <chr>    <chr>     <chr> <dbl> <chr> 
     1 A     8      A8      A8_NH4_2F2_2   Nmint1t2 NH4_2F2_2 extr  0.038 NH4   
     2 B     8      B8      B8_NH4_2F2_2   Nmint1t2 NH4_2F2_2 extr  0.037 NH4   
     3 C     8      C8      C8_NH4_2F2_2   Nmint1t2 NH4_2F2_2 extr  0.038 NH4   
     4 D     8      D8      D8_NH4_2F2_2   Nmint1t2 NH4_2F2_2 extr  0.038 NH4   
     5 E     8      E8      E8_NH4_2F2_2   Nmint1t2 NH4_2F2_2 extr  0.038 NH4   
     6 F     8      F8      F8_NH4_2F2_2   Nmint1t2 NH4_2F2_2 extr  0.038 NH4   
     7 G     8      G8      G8_NH4_2F2_2   Nmint1t2 NH4_2F2_2 extr  0.038 NH4   
     8 H     8      H8      H8_NH4_2F2_2   Nmint1t2 NH4_2F2_2 extr  0.059 NH4   
     9 A     8      A8      A8_NH4_2P2     Nmint1t2 NH4_2P2   extr  0.039 NH4   
    10 B     8      B8      B8_NH4_2P2     Nmint1t2 NH4_2P2   extr  0.039 NH4   
    # ℹ 58 more rows
    # ℹ 3 more variables: std_conc <chr>, std_unit <chr>, sample_dilution <chr>
…
## 2.3 - All corrected data

Let’s just recall all corrected data. We have 2 separate tibbles
(because the experimental design was arranged to have separate blanks
for the curve and the samples)

``` r
# Standard curve, blank-corrected and clean
std_corrected 
```

    # A tibble: 2,302 × 15
       row   column well_id unique_well_id dataset  plate_id  unique_curve_id map  
       <chr> <chr>  <chr>   <chr>          <chr>    <chr>     <chr>           <chr>
     1 B     1      B1      B1_NH4_1F1     Nmint1t2 NH4_1F1   NH4_1F1_col1    Std  
     2 B     1      B1      B1_NH4_1F2_1   Nmint1t2 NH4_1F2_1 NH4_1F2_1_col1  Std  
     3 B     1      B1      B1_NH4_1F2_2   Nmint1t2 NH4_1F2_2 NH4_1F2_2_col1  Std  
     4 B     1      B1      B1_NH4_1F3     Nmint1t2 NH4_1F3   NH4_1F3_col1    Std  
     5 B     1      B1      B1_NH4_1F4     Nmint1t2 NH4_1F4   NH4_1F4_col1    Std  
     6 B     1      B1      B1_NH4_1F5     Nmint1t2 NH4_1F5   NH4_1F5_col1    Std  
     7 B     1      B1      B1_NH4_1G1     Nmint1t2 NH4_1G1   NH4_1G1_col1    Std  
     8 B     1      B1      B1_NH4_1G2     Nmint1t2 NH4_1G2   NH4_1G2_col1    Std  
     9 B     1      B1      B1_NH4_1G3     Nmint1t2 NH4_1G3   NH4_1G3_col1    Std  
    10 B     1      B1      B1_NH4_1G4     Nmint1t2 NH4_1G4   NH4_1G4_col1    Std  
    # ℹ 2,292 more rows
    # ℹ 7 more variables: abs_corrected <dbl>, std_sp <chr>, std_unit <chr>,
    #   sample_dilution <chr>, std_conc <chr>, blanc_sdev <dbl>,
    #   blanc_coeff_var_percent <dbl>

``` r
# Samples, blank-corrected and clean
abs_corrected
```

    # A tibble: 9,353 × 14
       row   column well_id unique_well_id dataset  plate_id  map      abs_corrected
       <chr> <chr>  <chr>   <chr>          <chr>    <chr>     <chr>            <dbl>
     1 A     2      A2      A2_NH4_1F1     Nmint1t2 NH4_1F1   81_t1_z2      0.007   
     2 A     2      A2      A2_NH4_1F2_1   Nmint1t2 NH4_1F2_1 97_t1_z1      0.00350 
     3 A     2      A2      A2_NH4_1F3     Nmint1t2 NH4_1F3   89_t1_z3      0.00288 
     4 A     2      A2      A2_NH4_1F4     Nmint1t2 NH4_1F4   81_t1_z1      0.00725 
     5 A     2      A2      A2_NH4_1F5     Nmint1t2 NH4_1F5   Std_3_t1      0.0229  
     6 A     2      A2      A2_NH4_1G1     Nmint1t2 NH4_1G1   1_t1          0.00100 
     7 A     2      A2      A2_NH4_1G2     Nmint1t2 NH4_1G2   17_t1         0.000875
     8 A     2      A2      A2_NH4_1G3     Nmint1t2 NH4_1G3   33_t1         0.00288 
     9 A     2      A2      A2_NH4_1G4     Nmint1t2 NH4_1G4   49_t1         0.000125
    10 A     2      A2      A2_NH4_1G5     Nmint1t2 NH4_1G5   65_t1         0.00175 
    # ℹ 9,343 more rows
    # ℹ 6 more variables: std_sp <chr>, std_conc <chr>, std_unit <chr>,
    #   sample_dilution <chr>, extr_sdev <dbl>, extr_coeff_var_percent <dbl>
…
