…
# 2 - Correction for blank

## 2.1 - Standard curve

Obtain curve concentrations from metadata

``` r
(curve_concentration <- extract_curve(all_plate_metadata))
```

    # A tibble: 1,832 × 4
       dataset  plate_id  row   std_conc
       <chr>    <chr>     <chr>    <dbl>
     1 Nmint1t2 NH4_1F1   A          0  
     2 Nmint1t2 NH4_1F1   B          0.5
     3 Nmint1t2 NH4_1F1   C          1  
     4 Nmint1t2 NH4_1F1   D          2  
     5 Nmint1t2 NH4_1F1   E          3  
     6 Nmint1t2 NH4_1F1   F          4  
     7 Nmint1t2 NH4_1F1   G          8  
     8 Nmint1t2 NH4_1F1   H         10  
     9 Nmint1t2 NH4_1F2_1 A          0  
    10 Nmint1t2 NH4_1F2_1 B          0.5
    # ℹ 1,822 more rows
…
    [1] 454

    [1] 5

    [1] 449

Then compute the average

``` r
(std_blank_avg <- std_blank_clean |> std_blank_average())
```

    # A tibble: 229 × 5
       dataset  plate_id  blank_avg blank_sdev blank_coeff_var_percent
       <chr>    <chr>         <dbl>      <dbl>                   <dbl>
     1 Nmint1t2 NH4_1F1      0.0385   0.000707                    1.84
     2 Nmint1t2 NH4_1F2_1    0.0385   0.000707                    1.84
     3 Nmint1t2 NH4_1F2_2    0.0385   0.000707                    1.84
     4 Nmint1t2 NH4_1F3      0.038    0                           0   
     5 Nmint1t2 NH4_1F4      0.0385   0.000707                    1.84
     6 Nmint1t2 NH4_1F5      0.0385   0.000707                    1.84
     7 Nmint1t2 NH4_1G1      0.0385   0.000707                    1.84
     8 Nmint1t2 NH4_1G2      0.0385   0.000707                    1.84
     9 Nmint1t2 NH4_1G3      0.038    0                           0   
    10 Nmint1t2 NH4_1G4      0.038    0                           0   
    # ℹ 219 more rows
…
``` r
raw_abs_clean_noPNR <- raw_abs_clean |> filter_out(dataset == "PNR")
```

First, extract data for wells containing extractant and have a look at
its variation

``` r
extr_data <- extract_extractant(raw_abs_clean_noPNR)
(blank_avg <- extractant_average(raw_abs_clean_noPNR) |> 
  arrange(desc(blank_coeff_var_percent)))
```

    # A tibble: 165 × 6
       dataset  plate_id   map   blank_avg blank_sdev blank_coeff_var_percent
       <chr>    <chr>      <chr>     <dbl>      <dbl>                   <dbl>
     1 PMN      NO2_PP4    extr     0.0494    0.0318                    64.3 
     2 Nmint1t2 NH4_2F2_2  extr     0.0405    0.00748                   18.5 
     3 Nmint3   NO3_R7R8_1 extr     0.0825    0.0135                    16.4 
     4 Nmint3   NO2_R4R5_1 extr     0.039     0.00270                    6.91
     5 Nmint1t2 NH4_2P2    extr     0.0401    0.00242                    6.02
     6 Nmint1t2 NO3_2F1_1  extr     0.0718    0.00377                    5.25
     7 PMN      NO2_PF2    extr     0.0376    0.00177                    4.70
     8 PMN      NO3_PP4    extr     0.0872    0.00399                    4.57
     9 Nmint1t2 NO2_2P6_1  extr     0.0372    0.00158                    4.24
    10 Nmint1t2 NO2_2F1_1  extr     0.0376    0.00151                    4.00
    # ℹ 155 more rows
…
suspicious_plates <- raw_abs_clean_noPNR |> 
  qc_raw_extr(suppress_warning = TRUE, max_coeff = threshold)

suspicious_extr <- suspicious_extr(
  raw_abs_clean_noPNR, suspicious_extr_per_plate = suspicious_plates, max_coeff = threshold)
```

    Joining with `by = join_by(plate_id, map)`

``` r
# check it out
suspicious_extr
```

    # A tibble: 60 × 13
       row   column well_id unique_well_id dataset  plate_id  map     abs std_sp
       <chr> <chr>  <chr>   <chr>          <chr>    <chr>     <chr> <dbl> <chr> 
     1 A     8      A8      A8_NH4_2F2_2   Nmint1t2 NH4_2F2_2 extr  0.038 NH4   
     2 B     8      B8      B8_NH4_2F2_2   Nmint1t2 NH4_2F2_2 extr  0.037 NH4   
     3 C     8      C8      C8_NH4_2F2_2   Nmint1t2 NH4_2F2_2 extr  0.038 NH4   
     4 D     8      D8      D8_NH4_2F2_2   Nmint1t2 NH4_2F2_2 extr  0.038 NH4   
     5 E     8      E8      E8_NH4_2F2_2   Nmint1t2 NH4_2F2_2 extr  0.038 NH4   
     6 F     8      F8      F8_NH4_2F2_2   Nmint1t2 NH4_2F2_2 extr  0.038 NH4   
     7 G     8      G8      G8_NH4_2F2_2   Nmint1t2 NH4_2F2_2 extr  0.038 NH4   
     8 H     8      H8      H8_NH4_2F2_2   Nmint1t2 NH4_2F2_2 extr  0.059 NH4   
     9 A     8      A8      A8_NH4_2P2     Nmint1t2 NH4_2P2   extr  0.039 NH4   
    10 B     8      B8      B8_NH4_2P2     Nmint1t2 NH4_2P2   extr  0.039 NH4   
    # ℹ 50 more rows
    # ℹ 4 more variables: std_conc <chr>, std_unit <chr>, sample_dilution <chr>,
    #   date <chr>
…
First, extract data for wells containing extractant and have a look at
its variation

``` r
extr_data <- extract_extractant(
  raw_abs_clean_PNR, extr_def = c("extr", "blank_ctrl"))
(blank_avg <- extractant_average(
  raw_abs_clean_PNR, extr_def = c("extr", "blank_ctrl")) |> 
  arrange(desc(blank_coeff_var_percent)))
```

    # A tibble: 80 × 6
       dataset plate_id map        blank_avg blank_sdev blank_coeff_var_percent
       <chr>   <chr>    <chr>          <dbl>      <dbl>                   <dbl>
     1 PNR     NO2_R4_2 extr          0.0392    0.00198                    5.05
     2 PNR     NO3_R3_2 extr          0.0978    0.00471                    4.82
     3 PNR     NO3_R6_2 extr          0.0968    0.00423                    4.38
     4 PNR     NO3_R3_1 extr          0.0978    0.00420                    4.30
     5 PNR     NO2_R5_4 blank_ctrl    0.0375    0.00151                    4.03
     6 PNR     NO2_R5_2 extr          0.0399    0.00136                    3.40
     7 PNR     NO3_R1_3 extr          0.0782    0.00255                    3.26
     8 PNR     NO3_R3_4 extr          0.0984    0.00288                    2.92
     9 PNR     NO2_R4_4 blank_ctrl    0.0375    0.00107                    2.85
    10 PNR     NO3_R3_3 extr          0.0974    0.00256                    2.63
    # ℹ 70 more rows
…
    Joining with `by = join_by(map)`

## 2.3 - All corrected data

Let’s just recall all corrected data. We have 2 separate tibbles
(because the experimental design was arranged to have separate blanks
for the curve and the samples)

``` r
# Standard curve, blank-corrected and clean
std_corrected 
```

    # A tibble: 3,204 × 17
       row   column well_id unique_well_id dataset  plate_id  unique_curve_id map  
       <chr> <chr>  <chr>   <chr>          <chr>    <chr>     <chr>           <chr>
     1 B     1      B1      B1_NH4_1F1     Nmint1t2 NH4_1F1   NH4_1F1_col1    Std  
     2 B     1      B1      B1_NH4_1F2_1   Nmint1t2 NH4_1F2_1 NH4_1F2_1_col1  Std  
     3 B     1      B1      B1_NH4_1F2_2   Nmint1t2 NH4_1F2_2 NH4_1F2_2_col1  Std  
     4 B     1      B1      B1_NH4_1F3     Nmint1t2 NH4_1F3   NH4_1F3_col1    Std  
     5 B     1      B1      B1_NH4_1F4     Nmint1t2 NH4_1F4   NH4_1F4_col1    Std  
     6 B     1      B1      B1_NH4_1F5     Nmint1t2 NH4_1F5   NH4_1F5_col1    Std  
     7 B     1      B1      B1_NH4_1G1     Nmint1t2 NH4_1G1   NH4_1G1_col1    Std  
     8 B     1      B1      B1_NH4_1G2     Nmint1t2 NH4_1G2   NH4_1G2_col1    Std  
     9 B     1      B1      B1_NH4_1G3     Nmint1t2 NH4_1G3   NH4_1G3_col1    Std  
    10 B     1      B1      B1_NH4_1G4     Nmint1t2 NH4_1G4   NH4_1G4_col1    Std  
    # ℹ 3,194 more rows
    # ℹ 9 more variables: abs_corrected <dbl>, std_sp <chr>, std_unit <chr>,
    #   sample_dilution <chr>, date <chr>, std_conc <dbl>, extr_id <chr>,
    #   blank_sdev <dbl>, blank_coeff_var_percent <dbl>

``` r
# Samples, blank-corrected and clean
samples_corrected_noPNR
```

    # A tibble: 6,551 × 16
       row   column well_id unique_well_id dataset  plate_id  map      abs_corrected
       <chr> <chr>  <chr>   <chr>          <chr>    <chr>     <chr>            <dbl>
     1 A     2      A2      A2_NH4_1F1     Nmint1t2 NH4_1F1   81_t1_z2      0.007   
     2 A     2      A2      A2_NH4_1F2_1   Nmint1t2 NH4_1F2_1 97_t1_z1      0.00350 
     3 A     2      A2      A2_NH4_1F3     Nmint1t2 NH4_1F3   89_t1_z3      0.00288 
     4 A     2      A2      A2_NH4_1F4     Nmint1t2 NH4_1F4   81_t1_z1      0.00725 
     5 A     2      A2      A2_NH4_1F5     Nmint1t2 NH4_1F5   Std_3_t1      0.0229  
     6 A     2      A2      A2_NH4_1G1     Nmint1t2 NH4_1G1   1_t1          0.00100 
     7 A     2      A2      A2_NH4_1G2     Nmint1t2 NH4_1G2   17_t1         0.000875
     8 A     2      A2      A2_NH4_1G3     Nmint1t2 NH4_1G3   33_t1         0.00288 
     9 A     2      A2      A2_NH4_1G4     Nmint1t2 NH4_1G4   49_t1         0.000125
    10 A     2      A2      A2_NH4_1G5     Nmint1t2 NH4_1G5   65_t1         0.00175 
    # ℹ 6,541 more rows
    # ℹ 8 more variables: std_sp <chr>, std_conc <chr>, std_unit <chr>,
    #   sample_dilution <chr>, date <chr>, extr_id <chr>, blank_sdev <dbl>,
    #   blank_coeff_var_percent <dbl>

``` r
samples_corrected_PNR
```

    # A tibble: 4,472 × 16
       row   column well_id unique_well_id dataset plate_id map        abs_corrected
       <chr> <chr>  <chr>   <chr>          <chr>   <chr>    <chr>              <dbl>
     1 A     3      A3      A3_NO3_R1_1    PNR     NO3_R1_1 83_z3_T0          0.0938
     2 A     3      A3      A3_NO3_R1_2    PNR     NO3_R1_2 90_z3_T0          0.0326
     3 A     3      A3      A3_NO3_R1_3    PNR     NO3_R1_3 95_z3_T0          0.0218
     4 A     3      A3      A3_NO3_R1_4    PNR     NO3_R1_4 Std_soil_…        0.121 
     5 A     3      A3      A3_NO3_R2_1    PNR     NO3_R2_1 82_z3_T0          0.0852
     6 A     3      A3      A3_NO3_R2_2    PNR     NO3_R2_2 87_z3_T0          0.0799
     7 A     3      A3      A3_NO3_R2_3    PNR     NO3_R2_3 93_z3_T0          0.0418
     8 A     3      A3      A3_NO3_R2_4    PNR     NO3_R2_4 Std_soil_…        0.176 
     9 A     3      A3      A3_NO3_R3_1    PNR     NO3_R3_1 81_z1_T0          0.0962
    10 A     3      A3      A3_NO3_R3_2    PNR     NO3_R3_2 89_z2_T0          0.0662
    # ℹ 4,462 more rows
    # ℹ 8 more variables: std_sp <chr>, std_conc <chr>, std_unit <chr>,
    #   sample_dilution <chr>, date <chr>, extr_id <chr>, blank_sdev <dbl>,
    #   blank_coeff_var_percent <dbl>
…
Then we take a subset to examine individually: those curves where the
linear model doesn’t seem to perform ideally (e.g., non-significant
model (p-value \> 0.05), residuals not normally distributed, or
heteroscedasticity)

``` r
lm_table_raw <- lm_std_curve(std_corrected |> group_by(plate_id, column))

# extract all plates where "something" is not perfect 
(lm_table_suspicious <- lm_table_raw |> 
  suspicious_lm())
```

    # A tibble: 96 × 12
       dataset  plate_id  unique_curve_id std_sp   slope r_squared adj_r_squared
       <chr>    <chr>     <chr>           <chr>    <dbl>     <dbl>         <dbl>
     1 Nmint1t2 NH4_1F1   NH4_1F1_col1    NH4    0.00798     0.990         0.988
     2 Nmint1t2 NH4_1G2   NH4_1G2_col12   NH4    0.00600     0.988         0.986
     3 Nmint1t2 NH4_2F1_1 NH4_2F1_1_col12 NH4    0.00884     0.996         0.995
     4 Nmint1t2 NH4_2F1_2 NH4_2F1_2_col12 NH4    0.00884     0.996         0.995
     5 Nmint1t2 NH4_2F2_1 NH4_2F2_1_col1  NH4    0.00800     0.998         0.997
     6 Nmint1t2 NH4_2F2_2 NH4_2F2_2_col1  NH4    0.00800     0.998         0.997
     7 Nmint1t2 NH4_2F4_1 NH4_2F4_1_col1  NH4    0.00857     0.990         0.988
     8 Nmint1t2 NH4_2F4_2 NH4_2F4_2_col1  NH4    0.00857     0.990         0.988
     9 Nmint1t2 NH4_2P1   NH4_2P1_col1    NH4    0.00887     0.990         0.988
    10 Nmint1t2 NH4_2P2   NH4_2P2_col12   NH4    0.00800     0.995         0.994
    # ℹ 86 more rows
    # ℹ 5 more variables: lm_p <dbl>, normality_lm_residuals <chr>,
    #   shapiro_p <dbl>, homoscedasticity_lm_residuals <chr>, breusch_pagan_p <dbl>
…
# check it out
data_mg_N_L
```

    # A tibble: 11,023 × 13
       dataset  plate_id  map      well_id abs_corrected std_sp target_sp std_unit  
       <chr>    <chr>     <chr>    <chr>           <dbl> <chr>  <chr>     <chr>     
     1 Nmint1t2 NH4_1F1   81_t1_z2 A2           0.007    NH4    N         mg NH4+ L…
     2 Nmint1t2 NH4_1F2_1 97_t1_z1 A2           0.00350  NH4    N         mg NH4+ L…
     3 Nmint1t2 NH4_1F3   89_t1_z3 A2           0.00288  NH4    N         mg NH4+ L…
     4 Nmint1t2 NH4_1F4   81_t1_z1 A2           0.00725  NH4    N         mg NH4+ L…
     5 Nmint1t2 NH4_1F5   Std_3_t1 A2           0.0229   NH4    N         mg NH4+ L…
     6 Nmint1t2 NH4_1G1   1_t1     A2           0.00100  NH4    N         mg NH4+ L…
     7 Nmint1t2 NH4_1G2   17_t1    A2           0.000875 NH4    N         mg NH4+ L…
     8 Nmint1t2 NH4_1G3   33_t1    A2           0.00288  NH4    N         mg NH4+ L…
     9 Nmint1t2 NH4_1G4   49_t1    A2           0.000125 NH4    N         mg NH4+ L…
    10 Nmint1t2 NH4_1G5   65_t1    A2           0.00175  NH4    N         mg NH4+ L…
    # ℹ 11,013 more rows
    # ℹ 5 more variables: slope <dbl>, adj_r_squared <dbl>, lm_p <dbl>,
    #   conc_mgNsp_L <dbl>, conc_mgN_L <dbl>
…
