…
``` r
curve_concentration <- extract_curve(all_plate_metadata)
```

Extract Std wells, add unique curve ID, then add curve_concentration

``` r
(std_data <- raw_abs_clean |> 
  extract_std_data() |> 
  select(!std_conc) |> 
  left_join(curve_concentration, by = join_by(row, dataset, plate_id)))
```

    # A tibble: 472 × 14
    # Groups:   dataset, plate_id [59]
       row   column well_id unique_well_id dataset plate_id   unique_curve_id map  
       <chr> <chr>  <chr>   <chr>          <chr>   <chr>      <chr>           <chr>
     1 A     1      A1      A1_NO3_TDN_01  TDN     NO3_TDN_01 NO3_TDN_01_col1 Std  
     2 A     1      A1      A1_NO3_TDN_02  TDN     NO3_TDN_02 NO3_TDN_02_col1 Std  
     3 A     1      A1      A1_NO3_TDN_03  TDN     NO3_TDN_03 NO3_TDN_03_col1 Std  
     4 A     1      A1      A1_NO3_TDN_04  TDN     NO3_TDN_04 NO3_TDN_04_col1 Std  
     5 A     1      A1      A1_NO3_TDN_05  TDN     NO3_TDN_05 NO3_TDN_05_col1 Std  
     6 A     1      A1      A1_NO3_TDN_06  TDN     NO3_TDN_06 NO3_TDN_06_col1 Std  
     7 A     1      A1      A1_NO3_TDN_07  TDN     NO3_TDN_07 NO3_TDN_07_col1 Std  
     8 A     1      A1      A1_NO3_TDN_08  TDN     NO3_TDN_08 NO3_TDN_08_col1 Std  
     9 A     1      A1      A1_NO3_TDN_09  TDN     NO3_TDN_09 NO3_TDN_09_col1 Std  
    10 A     1      A1      A1_NO3_TDN_10  TDN     NO3_TDN_10 NO3_TDN_10_col1 Std  
    # ℹ 462 more rows
    # ℹ 6 more variables: abs <chr>, std_sp <chr>, std_unit <chr>,
    #   sample_dilution <chr>, date <date>, std_conc <dbl>
…
## 2.2 - Sample wells

First, extract data for wells containing extractant and have a look at
its variation

``` r
extr_data <- extract_extractant(raw_abs_clean)
(blank_avg <- extractant_average(raw_abs_clean) |> 
  arrange(desc(blank_coeff_var_percent)))
```

    # A tibble: 59 × 6
       dataset plate_id     map   blank_avg blank_sdev blank_coeff_var_percent
       <chr>   <chr>        <chr>     <dbl>      <dbl>                   <dbl>
     1 TDN     NO3_TDN_38   extr     0.0714   0.00472                     6.61
     2 TDN     NO2_TDN_03   extr     0.0365   0.00141                     3.87
     3 TDN     NO3_TDN_07   extr     0.0921   0.00314                     3.40
     4 TDN     NO3_TDN_29   extr     0.147    0.00472                     3.22
     5 TDN     NO2_TDN_17   extr     0.0384   0.00106                     2.76
     6 TDN     NO3_TDN_36_1 extr     0.0708   0.00183                     2.59
     7 TDN     NO3_TDN_32   extr     0.133    0.00344                     2.59
     8 TDN     NO2_TDN_06   extr     0.0365   0.000926                    2.54
     9 TDN     NO3_TDN_04   extr     0.102    0.00253                     2.48
    10 TDN     NO3_TDN_25   extr     0.145    0.00329                     2.28
    # ℹ 49 more rows
…
## 2.3 - All corrected data

Let’s just recall all corrected data. We have 2 separate tibbles
(because the experimental design was arranged to have separate blanks
for the curve and the samples)

``` r
# Standard curve, blank-corrected and clean
std_corrected 
```

    # A tibble: 413 × 21
       row   column well_id unique_well_id dataset n_sp  TDN      nb bla   plate_id 
       <chr> <chr>  <chr>   <chr>          <chr>   <chr> <chr> <int> <chr> <chr>    
     1 B     1      B1      B1_NO3_TDN_01  TDN     NO3   TDN       1 <NA>  NO3_TDN_…
     2 B     1      B1      B1_NO3_TDN_02  TDN     NO3   TDN       2 <NA>  NO3_TDN_…
     3 B     1      B1      B1_NO3_TDN_03  TDN     NO3   TDN       3 <NA>  NO3_TDN_…
     4 B     1      B1      B1_NO3_TDN_04  TDN     NO3   TDN       4 <NA>  NO3_TDN_…
     5 B     1      B1      B1_NO3_TDN_05  TDN     NO3   TDN       5 <NA>  NO3_TDN_…
     6 B     1      B1      B1_NO3_TDN_06  TDN     NO3   TDN       6 <NA>  NO3_TDN_…
     7 B     1      B1      B1_NO3_TDN_07  TDN     NO3   TDN       7 <NA>  NO3_TDN_…
     8 B     1      B1      B1_NO3_TDN_08  TDN     NO3   TDN       8 <NA>  NO3_TDN_…
     9 B     1      B1      B1_NO3_TDN_09  TDN     NO3   TDN       9 <NA>  NO3_TDN_…
    10 B     1      B1      B1_NO3_TDN_10  TDN     NO3   TDN      10 <NA>  NO3_TDN_…
    # ℹ 403 more rows
    # ℹ 11 more variables: unique_curve_id <chr>, map <chr>, abs_corrected <dbl>,
    #   std_sp <chr>, std_unit <chr>, sample_dilution <chr>, date <date>,
    #   std_conc <dbl>, extr_id <chr>, blank_sdev <dbl>,
    #   blank_coeff_var_percent <dbl>

``` r
# Samples, blank-corrected and clean
samples_corrected 
```

    # A tibble: 4,485 × 16
       row   column well_id unique_well_id dataset plate_id   map      abs_corrected
       <chr> <chr>  <chr>   <chr>          <chr>   <chr>      <chr>            <dbl>
     1 A     2      A2      A2_NO3_TDN_01  TDN     NO3_TDN_01 102_t2_…         0.459
     2 A     2      A2      A2_NO3_TDN_02  TDN     NO3_TDN_02 92_t2_z…         0.471
     3 A     2      A2      A2_NO3_TDN_03  TDN     NO3_TDN_03 90_t2_z…         0.434
     4 A     2      A2      A2_NO3_TDN_04  TDN     NO3_TDN_04 90_t2_z…         0.433
     5 A     2      A2      A2_NO3_TDN_05  TDN     NO3_TDN_05 99_t2_z…         0.460
     6 A     2      A2      A2_NO3_TDN_06  TDN     NO3_TDN_06 81_t2_z…         0.438
     7 A     2      A2      A2_NO3_TDN_07  TDN     NO3_TDN_07 83_t2_z…         0.380
     8 A     2      A2      A2_NO3_TDN_08  TDN     NO3_TDN_08 81_t2_z…         0.375
     9 A     2      A2      A2_NO3_TDN_09  TDN     NO3_TDN_09 102_t2_…         0.759
    10 A     2      A2      A2_NO3_TDN_10  TDN     NO3_TDN_10 92_t2_z…         0.694
    # ℹ 4,475 more rows
    # ℹ 8 more variables: std_sp <chr>, std_conc <chr>, std_unit <chr>,
    #   sample_dilution <chr>, date <date>, extr_id <chr>, blank_sdev <dbl>,
    #   blank_coeff_var_percent <dbl>
…
    Joining with `by = join_by(dataset, plate_id, map, well_id, abs_corrected,
    std_sp, target_sp, std_unit, adj_r_squared, lm_p)`

``` r
# Check it out
data_mg_N_L
```

    # A tibble: 4,485 × 18
    # Rowwise: 
       dataset plate_id   map        well_id abs_corrected std_sp target_sp std_unit
       <chr>   <chr>      <chr>      <chr>           <dbl> <chr>  <chr>     <chr>   
     1 TDN     NO3_TDN_01 102_t2_z1… A2              0.459 NO3    N         mg NO3-…
     2 TDN     NO3_TDN_02 92_t2_z2_… A2              0.471 NO3    N         mg NO3-…
     3 TDN     NO3_TDN_03 90_t2_z3_… A2              0.434 NO3    N         mg NO3-…
     4 TDN     NO3_TDN_04 90_t2_z1_… A2              0.433 NO3    N         mg NO3-…
     5 TDN     NO3_TDN_05 99_t2_z2_… A2              0.460 NO3    N         mg NO3-…
     6 TDN     NO3_TDN_06 81_t2_z2_… A2              0.438 NO3    N         mg NO3-…
     7 TDN     NO3_TDN_07 83_t2_z3_… A2              0.380 NO3    N         mg NO3-…
     8 TDN     NO3_TDN_08 81_t2_z1_… A2              0.375 NO3    N         mg NO3-…
     9 TDN     NO3_TDN_09 102_t2_z1… A2              0.759 NO3    N         mg NO3-…
    10 TDN     NO3_TDN_10 92_t2_z2_… A2              0.694 NO3    N         mg NO3-…
    # ℹ 4,475 more rows
    # ℹ 10 more variables: poly_a <dbl>, poly_a_p <dbl>, poly_b <dbl>,
    #   poly_b_p <dbl>, r_squared <dbl>, adj_r_squared <dbl>, lm_p <dbl>,
    #   slope <dbl>, conc_mgNsp_L <dbl>, conc_mgN_L <dbl>
…
