…
First, we extract the rows containing data related to Standard curves
only

``` r
std_data <- Nmin_full |> 
  # take only plate-columns with standard curves
  filter(
    plate_map == "Std") |> 
  group_by(plate_id)
std_data
```

    # A tibble: 1,872 × 8
    # Groups:   plate_id [117]
       row   column well_id unique_well_id N_sp  plate_id plate_map absorbance
       <chr>  <dbl> <chr>   <chr>          <chr> <chr>    <chr>          <dbl>
     1 A          1 A1      NH4_1F1_A1     NH4   NH4_1F1  Std            0.039
     2 B          1 B1      NH4_1F1_B1     NH4   NH4_1F1  Std            0.043
     3 C          1 C1      NH4_1F1_C1     NH4   NH4_1F1  Std            0.047
     4 D          1 D1      NH4_1F1_D1     NH4   NH4_1F1  Std            0.053
     5 E          1 E1      NH4_1F1_E1     NH4   NH4_1F1  Std            0.059
     6 F          1 F1      NH4_1F1_F1     NH4   NH4_1F1  Std            0.067
     7 G          1 G1      NH4_1F1_G1     NH4   NH4_1F1  Std            0.096
     8 H          1 H1      NH4_1F1_H1     NH4   NH4_1F1  Std            0.126
     9 A         12 A12     NH4_1F1_A12    NH4   NH4_1F1  Std            0.038
    10 B         12 B12     NH4_1F1_B12    NH4   NH4_1F1  Std            0.042
    # ℹ 1,862 more rows
…
Second, we can take a subset of `std_data` that contains only the rows
with blancs, and only those that we trust (normally row A or H only)

``` r
# extract ("slice") only rows with the smallest absorbance
std_blanc_all <- std_data |> 
  slice_min(
    absorbance, # slice min according to the valus in abs
    n = nb_std,  # pick as many rows as the nb of columns with standard curve
    with_ties = FALSE # in case there are ties, it will add extra rows
    ) 
std_blanc_all
```

    # A tibble: 234 × 8
    # Groups:   plate_id [117]
       row   column well_id unique_well_id N_sp  plate_id  plate_map absorbance
       <chr>  <dbl> <chr>   <chr>          <chr> <chr>     <chr>          <dbl>
     1 A         12 A12     NH4_1F1_A12    NH4   NH4_1F1   Std            0.038
     2 A          1 A1      NH4_1F1_A1     NH4   NH4_1F1   Std            0.039
     3 A         12 A12     NH4_1F2_1_A12  NH4   NH4_1F2_1 Std            0.038
     4 A          1 A1      NH4_1F2_1_A1   NH4   NH4_1F2_1 Std            0.039
     5 A         12 A12     NH4_1F2_2_A12  NH4   NH4_1F2_2 Std            0.038
     6 A          1 A1      NH4_1F2_2_A1   NH4   NH4_1F2_2 Std            0.039
     7 A          1 A1      NH4_1F3_A1     NH4   NH4_1F3   Std            0.038
     8 A         12 A12     NH4_1F3_A12    NH4   NH4_1F3   Std            0.038
     9 A         12 A12     NH4_1F4_A12    NH4   NH4_1F4   Std            0.038
    10 A          1 A1      NH4_1F4_A1     NH4   NH4_1F4   Std            0.039
    # ℹ 224 more rows

``` r
# check that we will remove the "correct" suspicious blancs in a moment
std_blanc_trusted <- std_blanc_all |> 
  # remove anything not first or last row of plate <=> suspicious
  filter(row %in% c("A", "H"))

# see that we get 3 less rows now
std_blanc_trusted
```

    # A tibble: 231 × 8
    # Groups:   plate_id [117]
       row   column well_id unique_well_id N_sp  plate_id  plate_map absorbance
       <chr>  <dbl> <chr>   <chr>          <chr> <chr>     <chr>          <dbl>
     1 A         12 A12     NH4_1F1_A12    NH4   NH4_1F1   Std            0.038
     2 A          1 A1      NH4_1F1_A1     NH4   NH4_1F1   Std            0.039
     3 A         12 A12     NH4_1F2_1_A12  NH4   NH4_1F2_1 Std            0.038
     4 A          1 A1      NH4_1F2_1_A1   NH4   NH4_1F2_1 Std            0.039
     5 A         12 A12     NH4_1F2_2_A12  NH4   NH4_1F2_2 Std            0.038
     6 A          1 A1      NH4_1F2_2_A1   NH4   NH4_1F2_2 Std            0.039
     7 A          1 A1      NH4_1F3_A1     NH4   NH4_1F3   Std            0.038
     8 A         12 A12     NH4_1F3_A12    NH4   NH4_1F3   Std            0.038
     9 A         12 A12     NH4_1F4_A12    NH4   NH4_1F4   Std            0.038
    10 A          1 A1      NH4_1F4_A1     NH4   NH4_1F4   Std            0.039
    # ℹ 221 more rows
…
``` r
#** !! Adapt threshold parameter *

# Change parameter "2" in something computed?

std_blanc_avg <-  std_blanc_trusted |> 
  summarise(
    blanc_avg = mean(absorbance), 
    blanc_sdev = sd(absorbance)) |> 
  mutate(
    blanc_coeff_var_percent = 100 * blanc_sdev / blanc_avg)
std_blanc_avg
```

    # A tibble: 117 × 4
       plate_id  blanc_avg blanc_sdev blanc_coeff_var_percent
       <chr>         <dbl>      <dbl>                   <dbl>
     1 NH4_1F1      0.0385   0.000707                    1.84
     2 NH4_1F2_1    0.0385   0.000707                    1.84
     3 NH4_1F2_2    0.0385   0.000707                    1.84
     4 NH4_1F3      0.038    0                           0   
     5 NH4_1F4      0.0385   0.000707                    1.84
     6 NH4_1F5      0.0385   0.000707                    1.84
     7 NH4_1G1      0.0385   0.000707                    1.84
     8 NH4_1G2      0.0385   0.000707                    1.84
     9 NH4_1G3      0.038    0                           0   
    10 NH4_1G4      0.038    0                           0   
    # ℹ 107 more rows
…
