…
# Check it out
raw_field_t2_lab
```

</details>

    # A tibble: 80 × 53
       biol_unit_nb expe  sample_short soil  crop_diversity cs    bloc 
              <dbl> <chr> <chr>        <fct> <fct>          <fct> <fct>
     1           81 Field t2_81_z1     ABC   IC             IC    B2   
     2           81 Field t2_81_z2     ABC   IC             IC    B2   
     3           81 Field t2_81_z3     ABC   IC             IC    B2   
     4           82 Field t2_82_z1     ABC   SC             W     B2   
     5           82 Field t2_82_z2     ABC   SC             W     B2   
     6           82 Field t2_82_z3     ABC   SC             W     B2   
     7           83 Field t2_83_z1     ABC   SC             W     B3   
     8           83 Field t2_83_z2     ABC   SC             W     B3   
     9           83 Field t2_83_z3     ABC   SC             W     B3   
    10           84 Field t2_84_z1     ABC   IC             IC    B4   
    # ℹ 70 more rows
    # ℹ 46 more variables: sampling_time <chr>, zone <chr>, sample_name <chr>,
    #   whc_tare_tube_g <dbl>, whc_g_fw_g <dbl>, whc_tare_dish_g <dbl>,
    #   whc_g_sw_g <dbl>, whc_g_dw_g <dbl>, whc_comment <chr>, run_id_mr <chr>,
    #   flush_dm_tare_tr1 <dbl>, flush_dm_g_fw_tr1 <dbl>, flush_dm_g_dw_tr1 <dbl>,
    #   flush_dm_tare_tr2 <dbl>, flush_dm_g_fw_tr2 <dbl>, flush_dm_g_dw_tr2 <dbl>,
    #   flush_dm_tare_tr3 <dbl>, flush_dm_g_fw_tr3 <dbl>, …
…
</details>

    Joining with `by = join_by(biol_unit_nb)`

<details class="code-fold">
<summary>Code</summary>

``` r
# Check it out
raw_field_t2_Nmin
```

</details>

    # A tibble: 892 × 19
       dataset  cs    soil  sampling_time expe  zone  plate_id  biol_unit_nb map    
       <chr>    <fct> <fct> <chr>         <chr> <chr> <chr>            <dbl> <chr>  
     1 Nmint1t2 IC    Auto  t2            Field z1    NH4_2F1_1          102 102_t2…
     2 Nmint1t2 W     Ref   t2            Field z3    NH4_2F2_1           90 90_t2_…
     3 Nmint1t2 W     Auto  t2            Field z2    NH4_2F3_1           99 99_t2_…
     4 Nmint1t2 W     ABC   t2            Field z3    NH4_2F4_1           83 83_t2_…
     5 Nmint1t2 W     ABC   t2            Field z2    NH4_2F5_1           88 88_t2_…
     6 Nmint1t2 IC    Ref   t2            Field z1    NH4_2F6_1           89 89_t2_…
     7 Nmint1t2 IC    ABC   t2            Field z2    NH4_2F1_1           86 86_t2_…
     8 Nmint1t2 W     Ref   t2            Field z2    NH4_2F2_1           96 96_t2_…
     9 Nmint1t2 IC    Auto  t2            Field z2    NH4_2F3_1          104 104_t2…
    10 Nmint1t2 W     Auto  t2            Field z2    NH4_2F4_1          101 101_t2…
    # ℹ 882 more rows
    # ℹ 10 more variables: well_id <chr>, abs_corrected <dbl>, std_sp <chr>,
    #   target_sp <chr>, std_unit <chr>, slope <dbl>, adj_r_squared <dbl>,
    #   lm_p <dbl>, conc_mgNsp_L <dbl>, conc_mgN_L <dbl>
…
</details>

Check out both subsets. First, Nmin data

<details class="code-fold">
<summary>Code</summary>

``` r
raw_field_t2_Nmin
```

</details>

    # A tibble: 892 × 19
       dataset  cs    soil  sampling_time expe  zone  plate_id  biol_unit_nb map    
       <chr>    <fct> <fct> <chr>         <chr> <chr> <chr>            <dbl> <chr>  
     1 Nmint1t2 IC    Auto  t2            Field z1    NH4_2F1_1          102 102_t2…
     2 Nmint1t2 W     Ref   t2            Field z3    NH4_2F2_1           90 90_t2_…
     3 Nmint1t2 W     Auto  t2            Field z2    NH4_2F3_1           99 99_t2_…
     4 Nmint1t2 W     ABC   t2            Field z3    NH4_2F4_1           83 83_t2_…
     5 Nmint1t2 W     ABC   t2            Field z2    NH4_2F5_1           88 88_t2_…
     6 Nmint1t2 IC    Ref   t2            Field z1    NH4_2F6_1           89 89_t2_…
     7 Nmint1t2 IC    ABC   t2            Field z2    NH4_2F1_1           86 86_t2_…
     8 Nmint1t2 W     Ref   t2            Field z2    NH4_2F2_1           96 96_t2_…
     9 Nmint1t2 IC    Auto  t2            Field z2    NH4_2F3_1          104 104_t2…
    10 Nmint1t2 W     Auto  t2            Field z2    NH4_2F4_1          101 101_t2…
    # ℹ 882 more rows
    # ℹ 10 more variables: well_id <chr>, abs_corrected <dbl>, std_sp <chr>,
    #   target_sp <chr>, std_unit <chr>, slope <dbl>, adj_r_squared <dbl>,
    #   lm_p <dbl>, conc_mgNsp_L <dbl>, conc_mgN_L <dbl>

Then, PMN data

<details class="code-fold">
<summary>Code</summary>

``` r
raw_field_PMN
```

</details>

    # A tibble: 720 × 19
       dataset plate_id expe  soil  incubation_time tech_rep map       sampling_time
       <chr>   <chr>    <chr> <chr> <chr>           <chr>    <chr>     <chr>        
     1 PMN     NH4_PF1  Field Ref   i0              rt1      Field_Re… t0           
     2 PMN     NH4_PF2  Field Ref   i0              rt2      Field_Re… t0           
     3 PMN     NH4_PF3  Field Ref   i0              rt3      Field_Re… t0           
     4 PMN     NH4_PF4  Field Ref   i0              rt4      Field_Re… t0           
     5 PMN     NH4_PF1  Field Auto  i0              rt1      Field_Au… t0           
     6 PMN     NH4_PF2  Field Auto  i0              rt2      Field_Au… t0           
     7 PMN     NH4_PF3  Field Auto  i0              rt3      Field_Au… t0           
     8 PMN     NH4_PF4  Field Auto  i0              rt4      Field_Au… t0           
     9 PMN     NH4_PF1  Field ABC   i0              rt1      Field_AB… t0           
    10 PMN     NH4_PF2  Field ABC   i0              rt2      Field_AB… t0           
    # ℹ 710 more rows
    # ℹ 11 more variables: biol_unit_nb <chr>, well_id <chr>, abs_corrected <dbl>,
    #   std_sp <chr>, target_sp <chr>, std_unit <chr>, slope <dbl>,
    #   adj_r_squared <dbl>, lm_p <dbl>, conc_mgNsp_L <dbl>, conc_mgN_L <dbl>
…
</details>

    Joining with `by = join_by(biol_unit_nb)`

<details class="code-fold">
<summary>Code</summary>

``` r
# Check it out
field_TDN_clean
```

</details>

    # A tibble: 1,920 × 28
       dataset plate_id   plate_nb sample_std biol_unit_nb sampling_time zone 
       <chr>   <chr>         <dbl> <chr>             <dbl> <chr>         <chr>
     1 TDN     NO3_TDN_01        1 sample              102 t2            z1   
     2 TDN     NO3_TDN_02        2 sample               92 t2            z2   
     3 TDN     NO3_TDN_03        3 sample               90 t2            z3   
     4 TDN     NO3_TDN_04        4 sample               90 t2            z1   
     5 TDN     NO3_TDN_05        5 sample               99 t2            z2   
     6 TDN     NO3_TDN_06        6 sample               81 t2            z2   
     7 TDN     NO3_TDN_07        7 sample               83 t2            z3   
     8 TDN     NO3_TDN_08        8 sample               81 t2            z1   
     9 TDN     NO3_TDN_09        9 sample              102 t2            z1   
    10 TDN     NO3_TDN_10       10 sample               92 t2            z2   
    # ℹ 1,910 more rows
    # ℹ 21 more variables: fumigation <chr>, dilution <chr>, map <chr>,
    #   well_id <chr>, abs_corrected <dbl>, std_sp <chr>, target_sp <chr>,
    #   std_unit <chr>, poly_a <dbl>, poly_a_p <dbl>, poly_b <dbl>, poly_b_p <dbl>,
    #   r_squared <dbl>, adj_r_squared <dbl>, lm_p <dbl>, slope <dbl>,
    #   conc_mgNsp_L <dbl>, conc_mgN_L <dbl>, expe <chr>, cs <fct>, soil <fct>
…
</details>

    [1] 24

<details class="code-fold">
<summary>Code</summary>

``` r
yield_full |> filter(rdt_brut_ha != grain_yield_t_per_ha) |> select(biol_unit_nb, rdt_brut_ha, grain_yield_t_per_ha)
```

</details>

    # A tibble: 24 × 3
    # Rowwise: 
       biol_unit_nb rdt_brut_ha grain_yield_t_per_ha
              <dbl>       <dbl>                <dbl>
     1           81        1.01                1.01 
     2           84        1.07                1.07 
     3           85        0.95                0.947
     4           86        0.97                0.967
     5           87        1.11                1.11 
     6           88        1.01                1.01 
     7           81        0.57                0.573
     8           84        0.35                0.353
     9           86        0.31                0.307
    10           87        0.56                0.56 
    # ℹ 14 more rows
…
</details>

    [1] 32

<details class="code-fold">
<summary>Code</summary>

``` r
yield_full |> filter(rdt_15_percent_ha != grain_yield_15p_t_per_ha) |> select(biol_unit_nb, rdt_15_percent_ha, grain_yield_15p_t_per_ha)
```

</details>

    # A tibble: 32 × 3
    # Rowwise: 
       biol_unit_nb rdt_15_percent_ha grain_yield_15p_t_per_ha
              <dbl>             <dbl>                    <dbl>
     1           81              1                       1.00 
     2           82              1.07                    1.07 
     3           83              0.93                    0.927
     4           84              1.05                    1.05 
     5           85              0.93                    0.927
     6           86              0.95                    0.950
     7           87              1.11                    1.11 
     8           88              0.99                    0.992
     9           81              0.55                    0.554
    10           84              0.34                    0.343
    # ℹ 22 more rows
…
<details class="code-fold">
<summary>Code</summary>

``` r
#biggest coef var quite high
conc_mean_Nmin |> arrange(desc(coef_var))
```

</details>

    # A tibble: 223 × 8
       plate_id  map       biol_unit_nb zone  std_sp conc_mgN_L  st_dev coef_var
       <chr>     <chr>            <dbl> <chr> <chr>       <dbl>   <dbl>    <dbl>
     1 NH4_2F6_2 104_t2_z1          104 z1    NH4       0.0549  0.0399      72.6
     2 NH4_2F4_1 100_t2_z3          100 z3    NH4       0.0863  0.0620      71.9
     3 NH4_2F4_1 100_t2_z1          100 z1    NH4       0.0370  0.0246      66.7
     4 NH4_2F4_1 102_t2_z3          102 z3    NH4       0.0370  0.0246      66.7
     5 NH4_2F4_1 81_t2_z3            81 z3    NH4       0.0493  0.0285      57.7
     6 NO2_2F2_1 96_t2_z2            96 z2    NO2       0.00314 0.00176     55.9
     7 NH4_2F4_1 93_t2_z1            93 z1    NH4       0.0739  0.0402      54.4
     8 NO2_2F1_1 84_t2_z1            84 z1    NO2       0.00493 0.00258     52.2
     9 NO2_2F6_2 104_t2_z1          104 z1    NO2       0.00282 0.00141     50  
    10 NO2_2F2_1 84_t2_z2            84 z2    NO2       0.00524 0.00239     45.5
    # ℹ 213 more rows

<details class="code-fold">
<summary>Code</summary>

``` r
# but not too bad when look only at NO3
conc_mean_Nmin |> arrange(desc(std_sp), desc(coef_var))
```

</details>

    # A tibble: 223 × 8
       plate_id  map       biol_unit_nb zone  std_sp conc_mgN_L st_dev coef_var
       <chr>     <chr>            <dbl> <chr> <chr>       <dbl>  <dbl>    <dbl>
     1 NO3_2F4_1 100_t2_z3          100 z3    NO3         0.518 0.0795    15.4 
     2 NO3_2F2_2 94_t2_z1            94 z1    NO3         1.31  0.187     14.3 
     3 NO3_2F4_1 94_t2_z2            94 z2    NO3         0.735 0.0805    11.0 
     4 NO3_2F4_2 81_t2_z1            81 z1    NO3         1.37  0.136      9.95
     5 NO3_2F4_1 100_t2_z1          100 z1    NO3         1.17  0.106      9.06
     6 NO3_2F1_1 95_t2_z3            95 z3    NO3         1.20  0.0958     8.01
     7 NO3_2F3_1 85_t2_z1            85 z1    NO3         0.464 0.0365     7.87
     8 NO3_2F3_1 99_t2_z2            99 z2    NO3         1.32  0.0907     6.87
     9 NO3_2F4_1 101_t2_z2          101 z2    NO3         0.937 0.0638     6.81
    10 NO3_2F3_2 89_t2_z2            89 z2    NO3         1.36  0.0877     6.46
    # ℹ 213 more rows
…
<details class="code-fold">
<summary>Code</summary>

``` r
conc_mean_PMN |> arrange(desc(std_sp), desc(coef_var))
```

</details>

    # A tibble: 180 × 7
    # Groups:   map, biol_unit_nb [60]
       map               biol_unit_nb std_sp conc_mgN_L  st_dev coef_var soil 
       <chr>             <chr>        <chr>       <dbl>   <dbl>    <dbl> <chr>
     1 Field_ABC_i1_rt4  Field_ABC    NO3       0.00165 0.0198    1200   ABC  
     2 Field_Auto_i1_rt2 Field_Auto   NO3       0.0742  0.0566      76.2 Auto 
     3 Field_Auto_i0_rt3 Field_Auto   NO3       0.0199  0.0133      66.7 Auto 
     4 Field_Auto_i1_rt1 Field_Auto   NO3       0.110   0.0582      52.8 Auto 
     5 Field_Auto_i2_rt2 Field_Auto   NO3       0.0461  0.0206      44.7 Auto 
     6 Field_Auto_i2_rt1 Field_Auto   NO3       0.0170  0.00759     44.7 Auto 
     7 Field_Ref_i2_rt3  Field_Ref    NO3       0.348   0.116       33.3 Ref  
     8 Field_Auto_i4_rt4 Field_Auto   NO3       0.167   0.0521      31.3 Auto 
     9 Field_ABC_i0_rt4  Field_ABC    NO3       0.140   0.0379      27.0 ABC  
    10 Field_Ref_i1_rt4  Field_Ref    NO3       0.318   0.0816      25.6 Ref  
    # ℹ 170 more rows
…
<details class="code-fold">
<summary>Code</summary>

``` r
conc_mean_TDN |> arrange(desc(std_sp), desc(coef_var))
```

</details>

    # A tibble: 160 × 7
    # Groups:   std_sp, fumigation, biol_unit_nb [50]
       std_sp fumigation biol_unit_nb map                 conc_mgN_L st_dev coef_var
       <chr>  <chr>             <dbl> <chr>                    <dbl>  <dbl>    <dbl>
     1 NO3    NF                   85 85_t2_z1_NF.2x            8.20  0.232     2.83
     2 NO3    NF                  112 Field_t2_Std_R8_NF…       9.00  0.225     2.50
     3 NO3    CFE                 112 Field_t2_Std_R1_CF…      11.9   0.241     2.02
     4 NO3    NF                  104 104_t2_z1_NF.2x           7.34  0.145     1.98
     5 NO3    NF                   83 83_t2_z3_NF.2x            7.57  0.147     1.93
     6 NO3    CFE                  90 90_t2_z2_CFE.2x          11.7   0.219     1.87
     7 NO3    NF                   94 94_t2_z1_NF.2x            7.45  0.138     1.85
     8 NO3    NF                   86 86_t2_z2_NF.2x            8.36  0.149     1.78
     9 NO3    NF                   84 84_t2_z2_NF.2x            7.83  0.138     1.76
    10 NO3    CFE                  98 98_t2_z3_CFE.2x          11.5   0.201     1.74
    # ℹ 150 more rows

<details class="code-fold">
<summary>Code</summary>

``` r
conc_mean_TDN |> arrange(desc(coef_var))
```

</details>

    # A tibble: 160 × 7
    # Groups:   std_sp, fumigation, biol_unit_nb [50]
       std_sp fumigation biol_unit_nb map                 conc_mgN_L st_dev coef_var
       <chr>  <chr>             <dbl> <chr>                    <dbl>  <dbl>    <dbl>
     1 NO3    NF                   85 85_t2_z1_NF.2x            8.20  0.232     2.83
     2 NO3    NF                  112 Field_t2_Std_R8_NF…       9.00  0.225     2.50
     3 NO3    CFE                 112 Field_t2_Std_R1_CF…      11.9   0.241     2.02
     4 NO3    NF                  104 104_t2_z1_NF.2x           7.34  0.145     1.98
     5 NO3    NF                   83 83_t2_z3_NF.2x            7.57  0.147     1.93
     6 NO3    CFE                  90 90_t2_z2_CFE.2x          11.7   0.219     1.87
     7 NO3    NF                   94 94_t2_z1_NF.2x            7.45  0.138     1.85
     8 NO3    NF                   86 86_t2_z2_NF.2x            8.36  0.149     1.78
     9 NO3    NF                   84 84_t2_z2_NF.2x            7.83  0.138     1.76
    10 NO3    CFE                  98 98_t2_z3_CFE.2x          11.5   0.201     1.74
    # ℹ 150 more rows
…
