…
TDN_plate_data_wider
```

</details>

    # A tibble: 354 × 8
       sample_short dataset sampling_time N_sp  conc.N.L.avg_CFE_1x
       <chr>        <chr>   <chr>         <chr>               <dbl>
     1 100_t2_z1    TDN     t2            NO2             -0.000591
     2 100_t2_z1    TDN     t2            NO3              2.77    
     3 100_t2_z2    TDN     t2            NO2              0.000560
     4 100_t2_z2    TDN     t2            NO3              2.61    
     5 100_t2_z3    TDN     t2            NO3              2.68    
     6 100_t2_z3    TDN     t2            NO2             -0.000591
     7 101_t2_z1    TDN     t2            NO2              0.000836
     8 101_t2_z1    TDN     t2            NO3              2.65    
     9 101_t2_z2    TDN     t2            NO3              2.71    
    10 101_t2_z2    TDN     t2            NO2             -0.00118 
    # ℹ 344 more rows
    # ℹ 3 more variables: conc.N.L.avg_CFE_2x <dbl>, conc.N.L.avg_NF_1x <dbl>,
    #   conc.N.L.avg_NF_2x <dbl>
…
<details class="code-fold">
<summary>Code</summary>

``` r
Nmin_plate_data_wider <- Nmin_plate_data |> 
  select(sample_short, dataset, sampling_time, N_sp, conc_N_L_avg) |> 
  rename(conc.N.L.avg_Nmin = conc_N_L_avg)
Nmin_plate_data_wider
```

</details>

    # A tibble: 533 × 5
    # Rowwise: 
       sample_short dataset  sampling_time N_sp  conc.N.L.avg_Nmin
       <chr>        <chr>    <chr>         <chr>             <dbl>
     1 78_t2        Nmint1t2 t2            NO3             0      
     2 59_t2        Nmint1t2 t2            NO3             0      
     3 54_t2        Nmint1t2 t2            NO3             0.00370
     4 109_t2_MR_R1 Nmint1t2 t2            NH4             0.0109 
     5 77_t2        Nmint1t2 t2            NO3             0.0192 
     6 75_t2        Nmint1t2 t2            NO3             0.0111 
     7 75_t2        Nmint1t2 t2            NH4             0.196  
     8 109_t2_MR_R6 Nmint1t2 t2            NH4             0.0217 
     9 109_t2_MR_R5 Nmint1t2 t2            NH4             0.0217 
    10 66_t2        Nmint1t2 t2            NH4             0.0544 
    # ℹ 523 more rows
…
### 3.3.2 - Join absorbance data

Here we loose the explicit info on data set (TDN and Nmin compressed on
one line), but it is implicit in variable names (TDN: CFE or NF)

<details class="code-fold">
<summary>Code</summary>

``` r
Nmin_plate_data_wider
```

</details>

    # A tibble: 533 × 5
    # Rowwise: 
       sample_short dataset  sampling_time N_sp  conc.N.L.avg_Nmin
       <chr>        <chr>    <chr>         <chr>             <dbl>
     1 78_t2        Nmint1t2 t2            NO3             0      
     2 59_t2        Nmint1t2 t2            NO3             0      
     3 54_t2        Nmint1t2 t2            NO3             0.00370
     4 109_t2_MR_R1 Nmint1t2 t2            NH4             0.0109 
     5 77_t2        Nmint1t2 t2            NO3             0.0192 
     6 75_t2        Nmint1t2 t2            NO3             0.0111 
     7 75_t2        Nmint1t2 t2            NH4             0.196  
     8 109_t2_MR_R6 Nmint1t2 t2            NH4             0.0217 
     9 109_t2_MR_R5 Nmint1t2 t2            NH4             0.0217 
    10 66_t2        Nmint1t2 t2            NH4             0.0544 
    # ℹ 523 more rows

<details class="code-fold">
<summary>Code</summary>

``` r
TDN_plate_data_wider
```

</details>

    # A tibble: 354 × 8
       sample_short dataset sampling_time N_sp  conc.N.L.avg_CFE_1x
       <chr>        <chr>   <chr>         <chr>               <dbl>
     1 100_t2_z1    TDN     t2            NO2             -0.000591
     2 100_t2_z1    TDN     t2            NO3              2.77    
     3 100_t2_z2    TDN     t2            NO2              0.000560
     4 100_t2_z2    TDN     t2            NO3              2.61    
     5 100_t2_z3    TDN     t2            NO3              2.68    
     6 100_t2_z3    TDN     t2            NO2             -0.000591
     7 101_t2_z1    TDN     t2            NO2              0.000836
     8 101_t2_z1    TDN     t2            NO3              2.65    
     9 101_t2_z2    TDN     t2            NO3              2.71    
    10 101_t2_z2    TDN     t2            NO2             -0.00118 
    # ℹ 344 more rows
    # ℹ 3 more variables: conc.N.L.avg_CFE_2x <dbl>, conc.N.L.avg_NF_1x <dbl>,
    #   conc.N.L.avg_NF_2x <dbl>
<details class="code-fold">
<summary>Code</summary>

``` r
all_plate_data <- full_join(
  Nmin_plate_data_wider |> select(!dataset), 
  TDN_plate_data_wider |> select(!dataset),
  by = join_by(sample_short, sampling_time, N_sp))

all_plate_data
```

</details>

    # A tibble: 597 × 8
    # Rowwise: 
       sample_short sampling_time N_sp  conc.N.L.avg_Nmin conc.N.L.avg_CFE_1x
       <chr>        <chr>         <chr>             <dbl>               <dbl>
     1 78_t2        t2            NO3             0                     15.5 
     2 59_t2        t2            NO3             0                     15.5 
     3 54_t2        t2            NO3             0.00370               15.5 
     4 109_t2_MR_R1 t2            NH4             0.0109                NA   
     5 77_t2        t2            NO3             0.0192                 2.33
     6 75_t2        t2            NO3             0.0111                 2.22
     7 75_t2        t2            NH4             0.196                 NA   
     8 109_t2_MR_R6 t2            NH4             0.0217                NA   
     9 109_t2_MR_R5 t2            NH4             0.0217                NA   
    10 66_t2        t2            NH4             0.0544                NA   
    # ℹ 587 more rows
    # ℹ 3 more variables: conc.N.L.avg_CFE_2x <dbl>, conc.N.L.avg_NF_1x <dbl>,
    #   conc.N.L.avg_NF_2x <dbl>
### 3.3.3 - Join lab data and absorbance data

<u>**–\> For now, I don’t extract Field data, because I am unsure that
it was kept throughout all steps of this pipeline.**</u>

<details class="code-fold">
<summary>Code</summary>

``` r
all_plate_data
```

</details>

    # A tibble: 597 × 8
    # Rowwise: 
       sample_short sampling_time N_sp  conc.N.L.avg_Nmin conc.N.L.avg_CFE_1x
       <chr>        <chr>         <chr>             <dbl>               <dbl>
     1 78_t2        t2            NO3             0                     15.5 
     2 59_t2        t2            NO3             0                     15.5 
     3 54_t2        t2            NO3             0.00370               15.5 
     4 109_t2_MR_R1 t2            NH4             0.0109                NA   
     5 77_t2        t2            NO3             0.0192                 2.33
     6 75_t2        t2            NO3             0.0111                 2.22
     7 75_t2        t2            NH4             0.196                 NA   
     8 109_t2_MR_R6 t2            NH4             0.0217                NA   
     9 109_t2_MR_R5 t2            NH4             0.0217                NA   
    10 66_t2        t2            NH4             0.0544                NA   
    # ℹ 587 more rows
    # ℹ 3 more variables: conc.N.L.avg_CFE_2x <dbl>, conc.N.L.avg_NF_1x <dbl>,
    #   conc.N.L.avg_NF_2x <dbl>

<details class="code-fold">
<summary>Code</summary>

``` r
lab_data_t2_pot
```

</details>

    # A tibble: 60 × 92
       biol_unit_nb expe  sample_short cra_trial sd_c  soil  crop_diversity cs   
              <dbl> <chr> <chr>        <chr>     <chr> <chr> <chr>          <chr>
     1          201 Pot   1_t2         SyCI      Conv  Conv  SC             F    
     2          202 Pot   2_t2         SyCI      Conv  Conv  SC             W    
     3          203 Pot   3_t2         SyCI      Conv  Conv  IC             IC   
     4          205 Pot   5_t2         SyCBio    SdC1  Ref   SC             F    
     5          206 Pot   6_t2         SyCBio    SdC1  Ref   SC             W    
     6          207 Pot   7_t2         SyCBio    SdC1  Ref   IC             IC   
     7          209 Pot   9_t2         SyCBio    SdC2  Auto  SC             F    
     8          210 Pot   10_t2        SyCBio    SdC2  Auto  SC             W    
     9          211 Pot   11_t2        SyCBio    SdC2  Auto  IC             IC   
    10          213 Pot   13_t2        SyCBio    SdC3  ABC   SC             F    
    # ℹ 50 more rows
    # ℹ 84 more variables: bloc <chr>, sampling_time <chr>, zone <chr>,
    #   incub_time <chr>, researcher <chr>, sample_name <chr>,
    #   metadata_comment <chr>, whc_tare_tube_g <dbl>, whc_g_fw_g <dbl>,
    #   whc_tare_dish_g <dbl>, whc_g_sw_g <dbl>, whc_g_dw_g <dbl>,
    #   whc_comment <chr>, run_id_mr <chr>, flush_dm_comment <chr>,
    #   npool_mg_no3_per_l <dbl>, npool_mg_no2_per_l <dbl>, …
…
