…
# Check it out
raw_greenhouse_t2
```

</details>

    # A tibble: 88 × 44
       biol_unit_nb expe  sample_short cra_trial sd_c  soil  crop_diversity cs   
              <dbl> <chr> <chr>        <chr>     <chr> <fct> <fct>          <fct>
     1            1 Pot   t2_201_F     SyCI      Conv  Conv  SC             F    
     2            2 Pot   t2_202_W     SyCI      Conv  Conv  SC             W    
     3            3 Pot   t2_203_IC    SyCI      Conv  Conv  IC             IC   
     4            5 Pot   t2_205_F     SyCBio    SdC1  Ref   SC             F    
     5            6 Pot   t2_206_W     SyCBio    SdC1  Ref   SC             W    
     6            7 Pot   t2_207_IC    SyCBio    SdC1  Ref   IC             IC   
     7            9 Pot   t2_209_F     SyCBio    SdC2  Auto  SC             F    
     8           10 Pot   t2_210_W     SyCBio    SdC2  Auto  SC             W    
     9           11 Pot   t2_211_IC    SyCBio    SdC2  Auto  IC             IC   
    10           13 Pot   t2_213_F     SyCBio    SdC3  ABC   SC             F    
    # ℹ 78 more rows
    # ℹ 36 more variables: bloc <fct>, sampling_time <chr>, sample_name <chr>,
    #   whc_tare_tube_g <dbl>, whc_g_fw_g <dbl>, whc_tare_dish_g <dbl>,
    #   whc_g_sw_g <dbl>, whc_g_dw_g <dbl>, whc_comment <chr>,
    #   flush_dm_tare_tr1 <dbl>, flush_dm_g_fw_tr1 <dbl>, flush_dm_g_dw_tr1 <dbl>,
    #   flush_dm_tare_tr2 <dbl>, flush_dm_g_fw_tr2 <dbl>, flush_dm_g_dw_tr2 <dbl>,
    #   flush_dm_tare_tr3 <dbl>, flush_dm_g_fw_tr3 <dbl>, …
…
