…
# check it out
raw_subset_wc 
```

</details>

    # A tibble: 186 × 5
       sample_short tech_rep  tare  g_fw  g_dw
       <chr>        <chr>    <dbl> <dbl> <dbl>
     1 t2_81_z1     1         4.16  15    13  
     2 t2_81_z1     2         4.14  14.8  12.9
     3 t2_81_z1     3         4.16  13.5  11.8
     4 t2_81_z2     1         4.1   14.7  12.8
     5 t2_81_z2     2         4.18  15.5  13.4
     6 t2_81_z2     3         4.17  13.3  11.6
     7 t2_81_z3     1         4.16  12.6  11  
     8 t2_81_z3     2         4.15  13.6  11.9
     9 t2_81_z3     3         4.14  14    12.2
    10 t2_82_z1     1         4.15  14.2  12.4
    # ℹ 176 more rows
…
# check it out
wc 
```

</details>

    # A tibble: 62 × 3
       sample_short    dm    wc
       <chr>        <dbl> <dbl>
     1 t2_81_z1     0.819 0.181
     2 t2_81_z2     0.819 0.181
     3 t2_81_z3     0.816 0.184
     4 t2_82_z1     0.821 0.179
     5 t2_82_z2     0.822 0.178
     6 t2_82_z3     0.824 0.176
     7 t2_83_z1     0.823 0.177
     8 t2_83_z2     0.829 0.171
     9 t2_83_z3     0.818 0.182
    10 t2_84_z1     0.831 0.169
    # ℹ 52 more rows
…
</details>

    Joining with `by = join_by(sample_short)`

<details class="code-fold">
<summary>Code</summary>

``` r
flush_clean
```

</details>

    # A tibble: 62 × 14
       biol_unit_nb expe  sample_short soil  crop_diversity cs    bloc 
              <dbl> <chr> <chr>        <fct> <fct>          <fct> <fct>
     1           81 Field t2_81_z1     ABC   IC             IC    B2   
     2           81 Field t2_81_z2     ABC   IC             IC    B2   
     3           81 Field t2_81_z3     ABC   IC             IC    B2   
     4           82 Field t2_82_z1     ABC   SC             W     B2   
     5           82 Field t2_82_z2     ABC   SC             W     B2   
     6           82 Field t2_82_z3     ABC   SC             W     B2   
     7           83 Field t2_83_z1     ABC   SC             W     B3   
     8           83 Field t2_83_z2     ABC   SC             W     B3   
     9           83 Field t2_83_z3     ABC   SC             W     B3   
    10           84 Field t2_84_z1     ABC   IC             IC    B4   
    # ℹ 52 more rows
    # ℹ 7 more variables: sampling_time <chr>, zone <chr>, sample_name <chr>,
    #   dm <dbl>, wc <dbl>, ratio_nf <dbl>, ratio_cfe <dbl>
…
- Compute the N-sp N concentration in ppm (e.g. mg NO3-N / kg dry soil)

- do some data housecleaning

<details class="code-fold">
<summary>Code</summary>

``` r
Nmin_sample |> arrange(biol_unit_nb, zone) 
```

</details>

    # A tibble: 202 × 12
       plate_id  map      biol_unit_nb zone  std_sp conc_mgN_L dataset  cs    soil 
       <chr>     <chr>           <dbl> <chr> <chr>       <dbl> <chr>    <fct> <fct>
     1 NH4_2F4_2 81_t2_z1           81 z1    NH4       0.117   Nmint1t2 IC    ABC  
     2 NO2_2F4_2 81_t2_z1           81 z1    NO2       0.00290 Nmint1t2 IC    ABC  
     3 NO3_2F4_2 81_t2_z1           81 z1    NO3       1.37    Nmint1t2 IC    ABC  
     4 NH4_2F3_2 81_t2_z2           81 z2    NH4       0.121   Nmint1t2 IC    ABC  
     5 NO2_2F3_2 81_t2_z2           81 z2    NO2       0.00346 Nmint1t2 IC    ABC  
     6 NO3_2F3_2 81_t2_z2           81 z2    NO3       2.01    Nmint1t2 IC    ABC  
     7 NH4_2F4_1 81_t2_z3           81 z3    NH4       0.0493  Nmint1t2 IC    ABC  
     8 NO2_2F4_1 81_t2_z3           81 z3    NO2       0.00256 Nmint1t2 IC    ABC  
     9 NO3_2F4_1 81_t2_z3           81 z3    NO3       1.96    Nmint1t2 IC    ABC  
    10 NH4_2F3_2 82_t2_z1           82 z1    NH4       0.121   Nmint1t2 W     ABC  
    # ℹ 192 more rows
    # ℹ 3 more variables: sampling_time <chr>, expe <chr>, std_unit <chr>
…
</details>

    Joining with `by = join_by(biol_unit_nb, zone, cs, soil, sampling_time, expe)`

<details class="code-fold">
<summary>Code</summary>

``` r
# Check it out
Nmin_ppm_sample
```

</details>

    # A tibble: 148 × 11
       biol_unit_nb zone  std_sp dataset  cs    soil  crop_diversity bloc     dm
              <dbl> <chr> <chr>  <chr>    <fct> <fct> <fct>          <fct> <dbl>
     1           81 z2    NH4    Nmint1t2 IC    ABC   IC             B2    0.819
     2           81 z3    NH4    Nmint1t2 IC    ABC   IC             B2    0.816
     3           81 z1    NH4    Nmint1t2 IC    ABC   IC             B2    0.819
     4           81 z2    NO2    Nmint1t2 IC    ABC   IC             B2    0.819
     5           81 z3    NO2    Nmint1t2 IC    ABC   IC             B2    0.816
     6           81 z1    NO2    Nmint1t2 IC    ABC   IC             B2    0.819
     7           81 z2    NO3    Nmint1t2 IC    ABC   IC             B2    0.819
     8           81 z3    NO3    Nmint1t2 IC    ABC   IC             B2    0.816
     9           81 z1    NO3    Nmint1t2 IC    ABC   IC             B2    0.819
    10           82 z2    NH4    Nmint1t2 W     ABC   SC             B2    0.822
    # ℹ 138 more rows
    # ℹ 2 more variables: wc <dbl>, conc_ppm <dbl>
…
First, as for the other data sets, we need to derive N concentration in
ppm, using `conc_mgN_L`, `ratio` and `dm`. For this, we can re-use the
flush data

<details class="code-fold">
<summary>Code</summary>

``` r
# no ratio nor dm in TDN data set
TDN
```

</details>

    # A tibble: 160 × 11
    # Groups:   std_sp, fumigation, biol_unit_nb [50]
       std_sp fumigation biol_unit_nb map         conc_mgN_L st_dev coef_var dataset
       <chr>  <chr>             <dbl> <chr>            <dbl>  <dbl>    <dbl> <chr>  
     1 NO3    CFE                  81 81_t2_z1_C…       11.3 0.132     1.17  TDN    
     2 NO3    CFE                  81 81_t2_z2_C…       11.8 0.0299    0.255 TDN    
     3 NO3    CFE                  81 81_t2_z3_C…       11.3 0.190     1.67  TDN    
     4 NO3    CFE                  82 82_t2_z1_C…       12.0 0.139     1.16  TDN    
     5 NO3    CFE                  82 82_t2_z2_C…       11.8 0.137     1.16  TDN    
     6 NO3    CFE                  82 82_t2_z3_C…       10.9 0.0897    0.820 TDN    
     7 NO3    CFE                  83 83_t2_z1_C…       11.7 0.0527    0.452 TDN    
     8 NO3    CFE                  83 83_t2_z2_C…       11.2 0.0409    0.366 TDN    
     9 NO3    CFE                  83 83_t2_z3_C…       11.4 0.0325    0.285 TDN    
    10 NO3    CFE                  84 84_t2_z1_C…       10.8 0.0621    0.576 TDN    
    # ℹ 150 more rows
    # ℹ 3 more variables: sampling_time <chr>, zone <chr>, dilution <chr>

<details class="code-fold">
<summary>Code</summary>

``` r
# ratio and dm in flush data
flush_clean
```

</details>

    # A tibble: 62 × 14
       biol_unit_nb expe  sample_short soil  crop_diversity cs    bloc 
              <dbl> <chr> <chr>        <fct> <fct>          <fct> <fct>
     1           81 Field t2_81_z1     ABC   IC             IC    B2   
     2           81 Field t2_81_z2     ABC   IC             IC    B2   
     3           81 Field t2_81_z3     ABC   IC             IC    B2   
     4           82 Field t2_82_z1     ABC   SC             W     B2   
     5           82 Field t2_82_z2     ABC   SC             W     B2   
     6           82 Field t2_82_z3     ABC   SC             W     B2   
     7           83 Field t2_83_z1     ABC   SC             W     B3   
     8           83 Field t2_83_z2     ABC   SC             W     B3   
     9           83 Field t2_83_z3     ABC   SC             W     B3   
    10           84 Field t2_84_z1     ABC   IC             IC    B4   
    # ℹ 52 more rows
    # ℹ 7 more variables: sampling_time <chr>, zone <chr>, sample_name <chr>,
    #   dm <dbl>, wc <dbl>, ratio_nf <dbl>, ratio_cfe <dbl>
…
</details>

    Joining with `by = join_by(biol_unit_nb, sampling_time, zone)`

<details class="code-fold">
<summary>Code</summary>

``` r
# Check it out
TDN_sample
```

</details>

    # A tibble: 54 × 14
       std_sp biol_unit_nb dataset sampling_time zone  dilution expe  sample_short
       <chr>         <dbl> <chr>   <chr>         <chr> <chr>    <chr> <chr>       
     1 NO3              81 TDN     t2            z1    2x       Field t2_81_z1    
     2 NO3              81 TDN     t2            z2    2x       Field t2_81_z2    
     3 NO3              81 TDN     t2            z3    2x       Field t2_81_z3    
     4 NO3              82 TDN     t2            z1    2x       Field t2_82_z1    
     5 NO3              82 TDN     t2            z2    2x       Field t2_82_z2    
     6 NO3              82 TDN     t2            z3    2x       Field t2_82_z3    
     7 NO3              83 TDN     t2            z1    2x       Field t2_83_z1    
     8 NO3              83 TDN     t2            z2    2x       Field t2_83_z2    
     9 NO3              83 TDN     t2            z3    2x       Field t2_83_z3    
    10 NO3              84 TDN     t2            z1    2x       Field t2_84_z1    
    # ℹ 44 more rows
    # ℹ 6 more variables: soil <fct>, crop_diversity <fct>, cs <fct>, bloc <fct>,
    #   MBN_ppm <dbl>, TDN_ppm <dbl>
…
## 2.6 - Join all data (except PMN)

Overview of all generated data

<details class="code-fold">
<summary>Code</summary>

``` r
flush_clean
```

</details>

    # A tibble: 62 × 14
       biol_unit_nb expe  sample_short soil  crop_diversity cs    bloc 
              <dbl> <chr> <chr>        <fct> <fct>          <fct> <fct>
     1           81 Field t2_81_z1     ABC   IC             IC    B2   
     2           81 Field t2_81_z2     ABC   IC             IC    B2   
     3           81 Field t2_81_z3     ABC   IC             IC    B2   
     4           82 Field t2_82_z1     ABC   SC             W     B2   
     5           82 Field t2_82_z2     ABC   SC             W     B2   
     6           82 Field t2_82_z3     ABC   SC             W     B2   
     7           83 Field t2_83_z1     ABC   SC             W     B3   
     8           83 Field t2_83_z2     ABC   SC             W     B3   
     9           83 Field t2_83_z3     ABC   SC             W     B3   
    10           84 Field t2_84_z1     ABC   IC             IC    B4   
    # ℹ 52 more rows
    # ℹ 7 more variables: sampling_time <chr>, zone <chr>, sample_name <chr>,
    #   dm <dbl>, wc <dbl>, ratio_nf <dbl>, ratio_cfe <dbl>

<details class="code-fold">
<summary>Code</summary>

``` r
Nmin_all_variables
```

</details>

    # A tibble: 52 × 16
       biol_unit_nb zone  dataset  cs    soil  crop_diversity bloc     dm    wc
              <dbl> <chr> <chr>    <fct> <fct> <fct>          <fct> <dbl> <dbl>
     1           81 z2    Nmint1t2 IC    ABC   IC             B2    0.819 0.181
     2           81 z3    Nmint1t2 IC    ABC   IC             B2    0.816 0.184
     3           81 z1    Nmint1t2 IC    ABC   IC             B2    0.819 0.181
     4           82 z2    Nmint1t2 W     ABC   SC             B2    0.822 0.178
     5           82 z3    Nmint1t2 W     ABC   SC             B2    0.824 0.176
     6           82 z1    Nmint1t2 W     ABC   SC             B2    0.821 0.179
     7           83 z2    Nmint1t2 W     ABC   SC             B3    0.829 0.171
     8           83 z1    Nmint1t2 W     ABC   SC             B3    0.823 0.177
     9           83 z3    Nmint1t2 W     ABC   SC             B3    0.818 0.182
    10           84 z1    Nmint1t2 IC    ABC   IC             B4    0.831 0.169
    # ℹ 42 more rows
    # ℹ 7 more variables: ppm_NH4 <dbl>, ppm_NO2 <dbl>, ppm_NO3 <dbl>,
    #   ppm_Nmin <dbl>, NO3_Nmin <dbl>, NH4_Nmin <dbl>, NO3_NH4 <dbl>

<details class="code-fold">
<summary>Code</summary>

``` r
PMN_all_variables
```

</details>

    # A tibble: 60 × 18
    # Groups:   map, biol_unit_nb [60]
       map      biol_unit_nb soil     dm    wc expe  incub_time tech_rep    fw ratio
       <chr>    <chr>        <fct> <dbl> <dbl> <chr> <chr>      <chr>    <dbl> <dbl>
     1 Field_A… Field_ABC    ABC   0.813 0.187 Field i0         rt1       30   0.2  
     2 Field_A… Field_ABC    ABC   0.813 0.187 Field i0         rt2       30.2 0.201
     3 Field_A… Field_ABC    ABC   0.813 0.187 Field i0         rt3       29.7 0.198
     4 Field_A… Field_ABC    ABC   0.813 0.187 Field i0         rt4       30   0.2  
     5 Field_A… Field_ABC    ABC   0.813 0.187 Field i1         rt1       29.8 0.199
     6 Field_A… Field_ABC    ABC   0.813 0.187 Field i1         rt2       30   0.2  
     7 Field_A… Field_ABC    ABC   0.813 0.187 Field i1         rt3       30.1 0.201
     8 Field_A… Field_ABC    ABC   0.813 0.187 Field i1         rt4       30.5 0.203
     9 Field_A… Field_ABC    ABC   0.813 0.187 Field i2         rt1       30.2 0.201
    10 Field_A… Field_ABC    ABC   0.813 0.187 Field i2         rt2       30   0.2  
    # ℹ 50 more rows
    # ℹ 8 more variables: ppm_NH4 <dbl>, ppm_NO2 <dbl>, ppm_NO3 <dbl>,
    #   ppm_Nmin <dbl>, NO3_Nmin <dbl>, NH4_Nmin <dbl>, NO3_NH4 <dbl>,
    #   incub_day <drtn>

<details class="code-fold">
<summary>Code</summary>

``` r
TDN_sample
```

</details>

    # A tibble: 54 × 14
       std_sp biol_unit_nb dataset sampling_time zone  dilution expe  sample_short
       <chr>         <dbl> <chr>   <chr>         <chr> <chr>    <chr> <chr>       
     1 NO3              81 TDN     t2            z1    2x       Field t2_81_z1    
     2 NO3              81 TDN     t2            z2    2x       Field t2_81_z2    
     3 NO3              81 TDN     t2            z3    2x       Field t2_81_z3    
     4 NO3              82 TDN     t2            z1    2x       Field t2_82_z1    
     5 NO3              82 TDN     t2            z2    2x       Field t2_82_z2    
     6 NO3              82 TDN     t2            z3    2x       Field t2_82_z3    
     7 NO3              83 TDN     t2            z1    2x       Field t2_83_z1    
     8 NO3              83 TDN     t2            z2    2x       Field t2_83_z2    
     9 NO3              83 TDN     t2            z3    2x       Field t2_83_z3    
    10 NO3              84 TDN     t2            z1    2x       Field t2_84_z1    
    # ℹ 44 more rows
    # ℹ 6 more variables: soil <fct>, crop_diversity <fct>, cs <fct>, bloc <fct>,
    #   MBN_ppm <dbl>, TDN_ppm <dbl>

<details class="code-fold">
<summary>Code</summary>

``` r
yield
```

</details>

    # A tibble: 32 × 10
    # Rowwise: 
        year crop      soil  biol_unit_nb harvest_date grain_yield_15p_t_per_ha
       <dbl> <chr>     <chr>        <dbl> <chr>                           <dbl>
     1  2024 Wheat     ABC             81 13/08/2024                      1.00 
     2  2024 Wheat     ABC             82 13/08/2024                      1.07 
     3  2024 Wheat     ABC             83 13/08/2024                      0.927
     4  2024 Wheat     ABC             84 13/08/2024                      1.05 
     5  2024 Wheat     ABC             85 13/08/2024                      0.927
     6  2024 Wheat     ABC             86 13/08/2024                      0.950
     7  2024 Wheat     ABC             87 13/08/2024                      1.11 
     8  2024 Wheat     ABC             88 13/08/2024                      0.992
     9  2024 Faba bean ABC             81 13/08/2024                      0.554
    10  2024 Faba bean ABC             84 13/08/2024                      0.343
    # ℹ 22 more rows
    # ℹ 4 more variables: protein_percent_dw <dbl>, grain_yield_t_per_ha <dbl>,
    #   water_content_percent <dbl>, test_weight_kg_per_hl <dbl>
…
