…
# check it out
raw_subset_wc 
```

</details>

    # A tibble: 264 × 5
       sample_short tech_rep  tare  g_fw  g_dw
       <chr>        <chr>    <dbl> <dbl> <dbl>
     1 t2_201_F     1         4.18  12.4  11.6
     2 t2_201_F     2         4.16  12.9  12.1
     3 t2_201_F     3         4.16  12.4  11.6
     4 t2_202_W     1         4.12  12    11.4
     5 t2_202_W     2         4.13  12.1  11.5
     6 t2_202_W     3         4.14  12.8  12.2
     7 t2_203_IC    1         4.14  12.6  11.9
     8 t2_203_IC    2         4.11  12.5  11.8
     9 t2_203_IC    3         4.13  13.6  12.8
    10 t2_205_F     1         4.15  12.3  11.6
    # ℹ 254 more rows
…
# check it out
wc 
```

</details>

    # A tibble: 88 × 3
       sample_short    dm     wc
       <chr>        <dbl>  <dbl>
     1 t2_201_F     0.904 0.0963
     2 t2_202_W     0.926 0.0741
     3 t2_203_IC    0.923 0.0767
     4 t2_205_F     0.919 0.0807
     5 t2_206_W     0.906 0.0940
     6 t2_207_IC    0.902 0.0982
     7 t2_209_F     0.899 0.101 
     8 t2_210_W     0.923 0.0772
     9 t2_211_IC    0.922 0.0780
    10 t2_213_F     0.909 0.0910
    # ℹ 78 more rows
…
</details>

    Joining with `by = join_by(sample_short)`

<details class="code-fold">
<summary>Code</summary>

``` r
flush_clean
```

</details>

    # A tibble: 88 × 13
       biol_unit_nb expe  sample_short soil  crop_diversity cs    bloc 
              <dbl> <chr> <chr>        <fct> <fct>          <fct> <fct>
     1            1 Pot   t2_201_F     Conv  SC             F     B1   
     2            2 Pot   t2_202_W     Conv  SC             W     B1   
     3            3 Pot   t2_203_IC    Conv  IC             IC    B1   
     4            5 Pot   t2_205_F     Ref   SC             F     B1   
     5            6 Pot   t2_206_W     Ref   SC             W     B1   
     6            7 Pot   t2_207_IC    Ref   IC             IC    B1   
     7            9 Pot   t2_209_F     Auto  SC             F     B1   
     8           10 Pot   t2_210_W     Auto  SC             W     B1   
     9           11 Pot   t2_211_IC    Auto  IC             IC    B1   
    10           13 Pot   t2_213_F     ABC   SC             F     B1   
    # ℹ 78 more rows
    # ℹ 6 more variables: sampling_time <chr>, sample_name <chr>, dm <dbl>,
    #   wc <dbl>, ratio_nf <dbl>, ratio_cfe <dbl>
…
- Compute the N-sp N concentration in ppm (e.g. mg NO3-N / kg dry soil)

- do some data housecleaning

<details class="code-fold">
<summary>Code</summary>

``` r
Nmin_sample |> arrange(biol_unit_nb) 
```

</details>

    # A tibble: 180 × 17
    # Groups:   plate_id, map, biol_unit_nb [180]
       plate_id  map   biol_unit_nb std_sp conc_mgN_L   st_dev coef_var dataset 
       <chr>     <chr>        <dbl> <chr>       <dbl>    <dbl>    <dbl> <chr>   
     1 NH4_2P7_1 1_t2             1 NH4       0.0499  0.0250      50    Nmint1t2
     2 NO2_2P7_1 1_t2             1 NO2       0.00352 0            0    Nmint1t2
     3 NO3_2P7_1 1_t2             1 NO3       0.132   0.00898      6.79 Nmint1t2
     4 NH4_2P3   2_t2             2 NH4       0.236   0.0405      17.2  Nmint1t2
     5 NO2_2P3   2_t2             2 NO2       0.00599 0.000865    14.4  Nmint1t2
     6 NO3_2P3   2_t2             2 NO3       0.0988  0.0146      14.7  Nmint1t2
     7 NH4_2P3   3_t2             3 NH4       0.0868  0            0    Nmint1t2
     8 NO2_2P3   3_t2             3 NO2       0.00711 0.000749    10.5  Nmint1t2
     9 NO3_2P3   3_t2             3 NO3       0.103   0.0176      17.1  Nmint1t2
    10 NH4_2P3   5_t2             5 NH4       0.0744  0.0248      33.3  Nmint1t2
    # ℹ 170 more rows
    # ℹ 9 more variables: sampling_time <chr>, expe <chr>, target_sp <chr>,
    #   std_unit <chr>, slope <dbl>, adj_r_squared <dbl>, lm_p <dbl>, cs <fct>,
    #   soil <fct>
…
    Joining with `by = join_by(biol_unit_nb, sampling_time, expe, cs, soil)`
    Adding missing grouping variables: `plate_id`, `map`

<details class="code-fold">
<summary>Code</summary>

``` r
# Check it out
Nmin_ppm_sample
```

</details>

    # A tibble: 180 × 14
    # Groups:   plate_id, map, biol_unit_nb [180]
       plate_id  map   biol_unit_nb std_sp   st_dev coef_var dataset  cs    soil 
       <chr>     <chr>        <dbl> <chr>     <dbl>    <dbl> <chr>    <fct> <fct>
     1 NH4_2P7_1 1_t2             1 NH4    0.0250      50    Nmint1t2 F     Conv 
     2 NO2_2P7_1 1_t2             1 NO2    0            0    Nmint1t2 F     Conv 
     3 NO3_2P7_1 1_t2             1 NO3    0.00898      6.79 Nmint1t2 F     Conv 
     4 NH4_2P3   2_t2             2 NH4    0.0405      17.2  Nmint1t2 W     Conv 
     5 NO2_2P3   2_t2             2 NO2    0.000865    14.4  Nmint1t2 W     Conv 
     6 NO3_2P3   2_t2             2 NO3    0.0146      14.7  Nmint1t2 W     Conv 
     7 NH4_2P3   3_t2             3 NH4    0            0    Nmint1t2 IC    Conv 
     8 NO2_2P3   3_t2             3 NO2    0.000749    10.5  Nmint1t2 IC    Conv 
     9 NO3_2P3   3_t2             3 NO3    0.0176      17.1  Nmint1t2 IC    Conv 
    10 NH4_2P3   5_t2             5 NH4    0.0248      33.3  Nmint1t2 F     Ref  
    # ℹ 170 more rows
    # ℹ 5 more variables: crop_diversity <fct>, bloc <fct>, dm <dbl>, wc <dbl>,
    #   conc_ppm <dbl>
…
    fw_fb_per_plant = fw_fb_per_pot / nb_fb,
    fw_w_per_plant = fw_w_per_pot / nb_w,
    dw_fb_per_plant = dw_fb_per_pot / nb_fb,
    dw_w_per_plant = dw_w_per_pot / nb_w,
    
    .keep = "unused"
    ) 

# check it out
yield_per_plant
```

</details>

    # A tibble: 88 × 23
    # Rowwise: 
       biol_unit_nb expe  sample_short cra_trial sd_c  soil  crop_diversity cs   
              <dbl> <chr> <chr>        <chr>     <chr> <fct> <chr>          <chr>
     1            1 Pot   t2_201_F     SyCI      Conv  Conv  SC             F    
     2            2 Pot   t2_202_W     SyCI      Conv  Conv  SC             W    
     3            3 Pot   t2_203_IC    SyCI      Conv  Conv  IC             IC   
     4            5 Pot   t2_205_F     SyCBio    SdC1  Ref   SC             F    
     5            6 Pot   t2_206_W     SyCBio    SdC1  Ref   SC             W    
     6            7 Pot   t2_207_IC    SyCBio    SdC1  Ref   IC             IC   
     7            9 Pot   t2_209_F     SyCBio    SdC2  Auto  SC             F    
     8           10 Pot   t2_210_W     SyCBio    SdC2  Auto  SC             W    
     9           11 Pot   t2_211_IC    SyCBio    SdC2  Auto  IC             IC   
    10           13 Pot   t2_213_F     SyCBio    SdC3  ABC   SC             F    
    # ℹ 78 more rows
    # ℹ 15 more variables: bloc <fct>, sampling_time <chr>, yd_rs_comment <chr>,
    #   height_per_fb <dbl>, stem_per_fb <dbl>, height_per_w <dbl>,
    #   till_per_w <dbl>, fw_fb_per_pot <dbl>, fw_w_per_pot <dbl>,
    #   dw_fb_per_pot <dbl>, dw_w_per_pot <dbl>, fw_fb_per_plant <dbl>,
    #   fw_w_per_plant <dbl>, dw_fb_per_plant <dbl>, dw_w_per_plant <dbl>
…
