4 Greenhouse t2 - Data wrangling
…
# Check it out
raw_greenhouse_t2_Nmin

# A tibble: 1,244 × 15
   dataset  sampling_time expe  plate_id biol_unit_nb map   abs_corrected std_sp
   <chr>    <chr>         <chr> <chr>           <dbl> <chr>         <dbl> <chr> 
 1 Nmint1t2 t2            Pot   NH4_2P1           110 110_…      0.00362  NH4   
 2 Nmint1t2 t2            Pot   NH4_2P2           110 110_…      0.00471  NH4   
 3 Nmint1t2 t2            Pot   NH4_2P3            46 46_t2      0.00175  NH4   
 4 Nmint1t2 t2            Pot   NH4_2P4           110 110_…      0.00425  NH4   
 5 Nmint1t2 t2            Pot   NH4_2P5            26 26_t2      0.00150  NH4   
 6 Nmint1t2 t2            Pot   NH4_2P6…           20 20_t2      0.00200  NH4   
 7 Nmint1t2 t2            Pot   NH4_2P7…           27 27_t2      0.00175  NH4   
 8 Nmint1t2 t2            Pot   NH4_2P1           109 109_…      0.000625 NH4   
 9 Nmint1t2 t2            Pot   NH4_2P2            30 30_t2      0.00371  NH4   
10 Nmint1t2 t2            Pot   NH4_2P3             2 2_t2       0.00575  NH4   
# ℹ 1,234 more rows
# ℹ 7 more variables: target_sp <chr>, std_unit <chr>, slope <dbl>,
#   adj_r_squared <dbl>, lm_p <dbl>, conc_mgNsp_L <dbl>, conc_mgN_L <dbl>
…
1 row per technical replicate

raw_greenhouse_t2_subset_wc <- raw_greenhouse_t2_flush |> 
  select(sample_short, flush_dm_tare_tr1:flush_dm_g_dw_tr3) |> 
  pivot_longer(
    cols = !sample_short,
    names_pattern = "flush_dm_(g_fw|g_dw|tare)_tr(\\d)",
    names_to = c(".value", "tech_rep"),
    values_to = "weight") 

# check it out
raw_greenhouse_t2_subset_wc 

# A tibble: 264 × 5
   sample_short tech_rep  tare  g_fw  g_dw
   <chr>        <chr>    <dbl> <dbl> <dbl>
 1 t2_201_F     1         4.18  12.4  11.6
 2 t2_201_F     2         4.16  12.9  12.1
 3 t2_201_F     3         4.16  12.4  11.6
 4 t2_202_W     1         4.12  12    11.4
 5 t2_202_W     2         4.13  12.1  11.5
 6 t2_202_W     3         4.14  12.8  12.2
 7 t2_203_IC    1         4.14  12.6  11.9
 8 t2_203_IC    2         4.11  12.5  11.8
 9 t2_203_IC    3         4.13  13.6  12.8
10 t2_205_F     1         4.15  12.3  11.6
# ℹ 254 more rows
…
# check it out
greenhouse_t2_wc 

# A tibble: 88 × 3
   sample_short    dm     wc
   <chr>        <dbl>  <dbl>
 1 t2_201_F     0.904 0.0963
 2 t2_202_W     0.926 0.0741
 3 t2_203_IC    0.923 0.0767
 4 t2_205_F     0.919 0.0807
 5 t2_206_W     0.906 0.0940
 6 t2_207_IC    0.902 0.0982
 7 t2_209_F     0.899 0.101 
 8 t2_210_W     0.923 0.0772
 9 t2_211_IC    0.922 0.0780
10 t2_213_F     0.909 0.0910
# ℹ 78 more rows
…
greenhouse_t2_flush_clean <- raw_greenhouse_t2_flush |> 
  select(
    !flush_dm_tare_tr1:flush_dm_g_dw_tr3 & 
      !ends_with("comment")) |> 
  left_join(greenhouse_t2_wc) |> 
  mutate(
    ratio_nf = flush_fw_nf_g / vol_extr,
    ratio_cfe = flush_fw_cfe_g / vol_extr,
    .keep = "unused") 

Joining with `by = join_by(sample_short)`

greenhouse_t2_flush_clean

# A tibble: 88 × 13
   biol_unit_nb expe  sample_short soil  crop_diversity cs    bloc 
          <dbl> <chr> <chr>        <fct> <fct>          <fct> <fct>
 1            1 Pot   t2_201_F     Conv  SC             F     B1   
 2            2 Pot   t2_202_W     Conv  SC             W     B1   
 3            3 Pot   t2_203_IC    Conv  IC             IC    B1   
 4            5 Pot   t2_205_F     Ref   SC             F     B1   
 5            6 Pot   t2_206_W     Ref   SC             W     B1   
 6            7 Pot   t2_207_IC    Ref   IC             IC    B1   
 7            9 Pot   t2_209_F     Auto  SC             F     B1   
 8           10 Pot   t2_210_W     Auto  SC             W     B1   
 9           11 Pot   t2_211_IC    Auto  IC             IC    B1   
10           13 Pot   t2_213_F     ABC   SC             F     B1   
# ℹ 78 more rows
# ℹ 6 more variables: sampling_time <chr>, sample_name <chr>, dm <dbl>,
#   wc <dbl>, ratio_nf <dbl>, ratio_cfe <dbl>
…
Joining with `by = join_by(sampling_time, expe, biol_unit_nb)`

# Check it out
greenhouse_t2_Nmin_ppm_sample

# A tibble: 720 × 9
   biol_unit_nb std_sp soil  crop_diversity cs    bloc     dm     wc conc_ppm
          <dbl> <chr>  <fct> <fct>          <fct> <fct> <dbl>  <dbl>    <dbl>
 1            1 NH4    Conv  SC             F     B1    0.904 0.0963  0.0823 
 2            1 NH4    Conv  SC             F     B1    0.904 0.0963  0.0823 
 3            1 NH4    Conv  SC             F     B1    0.904 0.0963  0.0823 
 4            1 NH4    Conv  SC             F     B1    0.904 0.0963  0.192  
 5            1 NO2    Conv  SC             F     B1    0.904 0.0963  0.00773
 6            1 NO2    Conv  SC             F     B1    0.904 0.0963  0.00773
 7            1 NO2    Conv  SC             F     B1    0.904 0.0963  0.00773
 8            1 NO2    Conv  SC             F     B1    0.904 0.0963  0.00773
 9            1 NO3    Conv  SC             F     B1    0.904 0.0963  0.273  
10            1 NO3    Conv  SC             F     B1    0.904 0.0963  0.308  
# ℹ 710 more rows
…
