…
``` r
data_w
```

    # A tibble: 24 × 22
    # Rowwise: 
        year crop  soil  biol_unit_nb harvest_date grain_yield_15p_t_per_ha
       <dbl> <chr> <chr>        <dbl> <chr>                           <dbl>
     1  2024 Wheat ABC             81 13/08/2024                      1.00 
     2  2024 Wheat ABC             82 13/08/2024                      1.07 
     3  2024 Wheat ABC             83 13/08/2024                      0.927
     4  2024 Wheat ABC             84 13/08/2024                      1.05 
     5  2024 Wheat ABC             85 13/08/2024                      0.927
     6  2024 Wheat ABC             86 13/08/2024                      0.950
     7  2024 Wheat ABC             87 13/08/2024                      1.11 
     8  2024 Wheat ABC             88 13/08/2024                      0.992
     9  2024 Wheat Ref             89 30/07/2024                      1.99 
    10  2024 Wheat Ref             90 30/07/2024                      2.62 
    # ℹ 14 more rows
    # ℹ 16 more variables: protein_percent_dw <dbl>, grain_yield_t_per_ha <dbl>,
    #   water_content_percent <dbl>, test_weight_kg_per_hl <dbl>, cs <fct>,
    #   bloc <fct>, MBN_ppm <dbl>, TDN_ppm <dbl>, ppm_NH4 <dbl>, ppm_NO3 <dbl>,
    #   ppm_NO2 <dbl>, Nmin_ppm <dbl>, Norg_ppm <dbl>, NO3_NH4 <dbl>,
    #   NO3_Nmin <dbl>, Nmin_TDN <dbl>
…
