…
Nmin_N_variable_longer  
```

</details>

    # A tibble: 360 × 10
       expe  sample_short sd_c  soil  crop_diversity cs    bloc  sampling_time
       <chr> <chr>        <chr> <fct> <fct>          <fct> <fct> <chr>        
     1 Pot   1_t2         Conv  Conv  SC             F     B1    t2           
     2 Pot   1_t2         Conv  Conv  SC             F     B1    t2           
     3 Pot   1_t2         Conv  Conv  SC             F     B1    t2           
     4 Pot   1_t2         Conv  Conv  SC             F     B1    t2           
     5 Pot   1_t2         Conv  Conv  SC             F     B1    t2           
     6 Pot   1_t2         Conv  Conv  SC             F     B1    t2           
     7 Pot   2_t2         Conv  Conv  SC             W     B1    t2           
     8 Pot   2_t2         Conv  Conv  SC             W     B1    t2           
     9 Pot   2_t2         Conv  Conv  SC             W     B1    t2           
    10 Pot   2_t2         Conv  Conv  SC             W     B1    t2           
    # ℹ 350 more rows
    # ℹ 2 more variables: N_variable <fct>, conc_N_ppm <dbl>
…
