…
Problem: for now, the statistical unit is the pot (1 row per pot). But
some variables cannot be regrouped for both plant species. Consequently,
there are some missing data, see here:

``` r
greenhouse |> select(cs, fw_fb_per_pot:dw_w_per_plant)
```

    # A tibble: 60 × 9
       cs    fw_fb_per_pot fw_w_per_pot dw_fb_per_pot dw_w_per_pot fw_fb_per_plant
       <chr>         <dbl>        <dbl>         <dbl>        <dbl>           <dbl>
     1 F              36.3        NA             6.1        NA                18.2
     2 W              NA           4.45         NA           1.4              NA  
     3 IC             17.7         4.64          3.14        1.38             17.7
     4 F              39.5        NA             6.58       NA                19.7
     5 W              NA           6.34         NA           2.26             NA  
     6 IC             26.2         2.72          6.34        0.900            26.2
     7 F              40.4        NA             7.01       NA                20.2
     8 W              NA           6.99         NA           2.49             NA  
     9 IC             29.7         2.47          5.12        0.72             29.7
    10 F              34.5        NA             6.29       NA                17.2
    # ℹ 50 more rows
    # ℹ 3 more variables: fw_w_per_plant <dbl>, dw_fb_per_plant <dbl>,
    #   dw_w_per_plant <dbl>
…
